EESchema Schematic File Version 4
LIBS:elektronikaĵoj-cache
EELAYER 26 0
EELAYER END
$Descr A4 11693 8268
encoding utf-8
Sheet 1 5
Title "regilo LAUKOT-1"
Date "2020-10-04"
Rev "1.0"
Comp "Roboto-1"
Comment1 ""
Comment2 "Пеганов"
Comment3 ""
Comment4 ""
$EndDescr
$Sheet
S 4650 6000 1400 1300
U 5F799016
F0 "Motor" 50
F1 "Motor.sch" 50
F2 "motor_on" I L 4650 6800 50 
F3 "motor_reverce" I L 4650 7000 50 
F4 "motor_up_limit" O R 6050 6800 50 
F5 "motor_down_limit" O R 6050 7000 50 
F6 "GGND" U R 6050 6500 50 
F7 "+3.3VD" U R 6050 6300 50 
F8 "+5VD" U R 6050 6100 50 
F9 "+12VPWR" U L 4650 6300 50 
F10 "GNDPWR" U L 4650 6500 50 
$EndSheet
$Sheet
S 4650 4600 1400 1100
U 5F7D4F16
F0 "Servo" 50
F1 "LAUKOT-1.sch" 50
F2 "PWM_tranĉilo" I L 4650 5200 50 
F3 "PWM_glitpeco" I L 4650 5400 50 
F4 "DGND" U R 6050 4900 50 
F5 "right_limit" O R 6050 5400 50 
F6 "left_limit" O R 6050 5200 50 
F7 "3.3VD" U R 6050 4700 50 
F8 "PGND" U L 4650 4900 50 
F9 "+5VP" U L 4650 4700 50 
F10 "dough" O R 6050 5600 50 
$EndSheet
$Sheet
S 4650 3000 1400 1300
U 5F7E4920
F0 "USART_RS485_Opto" 50
F1 "USART_RS485_Opto.sch" 50
F2 "DGND" U L 4650 3300 50 
F3 "RO" O L 4650 3600 50 
F4 "nRE" I L 4650 3800 50 
F5 "DE" I L 4650 4000 50 
F6 "DI" I L 4650 4200 50 
F7 "+5VD" U L 4650 3100 50 
$EndSheet
$Sheet
S 5000 1450 750  1250
U 5F816DF7
F0 "pupitro" 50
F1 "pupitro.sch" 50
F2 "BT1" O R 5750 1600 50 
F3 "BT2" O R 5750 1800 50 
F4 "BT3" O R 5750 2000 50 
F5 "BT4" O R 5750 2200 50 
F6 "BT5" O R 5750 2400 50 
F7 "BT6" O R 5750 2600 50 
F8 "DGND" U L 5000 1800 50 
F9 "+3.3VD" U L 5000 1600 50 
$EndSheet
$Comp
L power:+3.3V #PWR05
U 1 1 5F8C68C8
P 4850 1600
F 0 "#PWR05" H 4850 1450 50  0001 C CNN
F 1 "+3.3V" V 4850 1850 50  0000 C CNN
F 2 "" H 4850 1600 50  0000 C CNN
F 3 "" H 4850 1600 50  0000 C CNN
	1    4850 1600
	0    -1   -1   0   
$EndComp
Wire Wire Line
	4850 1600 5000 1600
$Comp
L power:GND #PWR06
U 1 1 5F8CD475
P 4850 1800
F 0 "#PWR06" H 4850 1550 50  0001 C CNN
F 1 "GND" V 4850 1550 50  0000 C CNN
F 2 "" H 4850 1800 50  0000 C CNN
F 3 "" H 4850 1800 50  0000 C CNN
	1    4850 1800
	0    1    1    0   
$EndComp
Wire Wire Line
	4850 1800 5000 1800
$Comp
L power:GND #PWR08
U 1 1 5F8D16BA
P 6200 4900
F 0 "#PWR08" H 6200 4650 50  0001 C CNN
F 1 "GND" V 6200 4650 50  0000 C CNN
F 2 "" H 6200 4900 50  0000 C CNN
F 3 "" H 6200 4900 50  0000 C CNN
	1    6200 4900
	0    -1   1    0   
$EndComp
Wire Wire Line
	6200 4900 6050 4900
$Comp
L power:GND #PWR04
U 1 1 5F8D7286
P 4500 3300
F 0 "#PWR04" H 4500 3050 50  0001 C CNN
F 1 "GND" V 4500 3050 50  0000 C CNN
F 2 "" H 4500 3300 50  0000 C CNN
F 3 "" H 4500 3300 50  0000 C CNN
	1    4500 3300
	0    1    1    0   
$EndComp
Wire Wire Line
	4500 3300 4650 3300
$Comp
L power:GND #PWR011
U 1 1 5F8D925D
P 6200 6500
F 0 "#PWR011" H 6200 6250 50  0001 C CNN
F 1 "GND" V 6200 6250 50  0000 C CNN
F 2 "" H 6200 6500 50  0000 C CNN
F 3 "" H 6200 6500 50  0000 C CNN
	1    6200 6500
	0    -1   1    0   
$EndComp
Wire Wire Line
	6200 6500 6050 6500
$Comp
L power:+3.3V #PWR010
U 1 1 5F8E1432
P 6200 6300
F 0 "#PWR010" H 6200 6150 50  0001 C CNN
F 1 "+3.3V" V 6200 6550 50  0000 C CNN
F 2 "" H 6200 6300 50  0000 C CNN
F 3 "" H 6200 6300 50  0000 C CNN
	1    6200 6300
	0    1    -1   0   
$EndComp
Wire Wire Line
	6200 6300 6050 6300
$Comp
L power:+3.3V #PWR07
U 1 1 5F8E37F9
P 6200 4700
F 0 "#PWR07" H 6200 4550 50  0001 C CNN
F 1 "+3.3V" V 6200 4950 50  0000 C CNN
F 2 "" H 6200 4700 50  0000 C CNN
F 3 "" H 6200 4700 50  0000 C CNN
	1    6200 4700
	0    1    -1   0   
$EndComp
Wire Wire Line
	6200 4700 6050 4700
Wire Wire Line
	4650 3100 4500 3100
$Comp
L power:+5V #PWR03
U 1 1 5F8EAAAC
P 4500 3100
F 0 "#PWR03" H 4500 2950 50  0001 C CNN
F 1 "+5V" V 4500 3350 50  0000 C CNN
F 2 "" H 4500 3100 50  0000 C CNN
F 3 "" H 4500 3100 50  0000 C CNN
	1    4500 3100
	0    -1   -1   0   
$EndComp
$Comp
L Connector:Barrel_Jack J1
U 1 1 5F8F2001
P 1800 3200
F 0 "J1" H 1855 3525 50  0000 C CNN
F 1 "Barrel Jack 5.5x2.1x10" H 1855 3434 50  0000 C CNN
F 2 "" H 1850 3160 50  0001 C CNN
F 3 "~" H 1850 3160 50  0001 C CNN
	1    1800 3200
	1    0    0    -1  
$EndComp
$Comp
L power:GND #PWR02
U 1 1 5F8F4648
P 2250 3300
F 0 "#PWR02" H 2250 3050 50  0001 C CNN
F 1 "GND" V 2250 3050 50  0000 C CNN
F 2 "" H 2250 3300 50  0000 C CNN
F 3 "" H 2250 3300 50  0000 C CNN
	1    2250 3300
	0    -1   1    0   
$EndComp
Wire Wire Line
	2250 3300 2100 3300
Wire Wire Line
	2100 3100 2250 3100
$Comp
L power:+5V #PWR01
U 1 1 5F8F4650
P 2250 3100
F 0 "#PWR01" H 2250 2950 50  0001 C CNN
F 1 "+5V" V 2250 3350 50  0000 C CNN
F 2 "" H 2250 3100 50  0000 C CNN
F 3 "" H 2250 3100 50  0000 C CNN
	1    2250 3100
	0    1    -1   0   
$EndComp
Text Notes 1700 3500 0    50   ~ 0
5V 0.6A
Wire Wire Line
	4650 4700 3050 4700
Wire Wire Line
	4650 4900 3450 4900
Text Notes 1500 4900 0    50   ~ 0
to power supply unit\n\n5 V  2A min
Text Notes 1550 4000 0    50   ~ 0
uC      200  mA\npupitro  12 mA\nRS485   250 mA\nservo     4 mA\nMotor     46 mA
Wire Wire Line
	6050 6100 6200 6100
$Comp
L power:+5V #PWR09
U 1 1 5F9415E1
P 6200 6100
F 0 "#PWR09" H 6200 5950 50  0001 C CNN
F 1 "+5V" V 6200 6350 50  0000 C CNN
F 2 "" H 6200 6100 50  0000 C CNN
F 3 "" H 6200 6100 50  0000 C CNN
	1    6200 6100
	0    1    -1   0   
$EndComp
Wire Wire Line
	4650 6300 3050 6300
Wire Wire Line
	4650 6500 3450 6500
Text Notes 1500 6500 0    50   ~ 0
to power supply unit\n\n12 V  10A min
$Comp
L elektronikaĵoj:DSN-VC288 P2
U 1 1 5F95A1CA
P 2650 6150
F 0 "P2" H 3578 6515 50  0000 L CNN
F 1 "DSN-VC288" H 3578 6424 50  0000 L CNN
F 2 "" H 2650 6300 50  0001 C CNN
F 3 "" H 2650 6300 50  0001 C CNN
	1    2650 6150
	1    0    0    -1  
$EndComp
Wire Wire Line
	2650 6150 2650 6300
Connection ~ 2650 6300
Wire Wire Line
	2650 6300 2350 6300
Wire Wire Line
	3050 6150 3050 6300
Connection ~ 3050 6300
Wire Wire Line
	3050 6300 2650 6300
Wire Wire Line
	3250 6150 3250 6500
Wire Wire Line
	3250 6500 2350 6500
Wire Wire Line
	3450 6150 3450 6500
$Comp
L elektronikaĵoj:DSN-VC288 P1
U 1 1 5F967038
P 2650 4550
F 0 "P1" H 3578 4915 50  0000 L CNN
F 1 "DSN-VC288" H 3578 4824 50  0000 L CNN
F 2 "" H 2650 4700 50  0001 C CNN
F 3 "" H 2650 4700 50  0001 C CNN
	1    2650 4550
	1    0    0    -1  
$EndComp
Wire Wire Line
	2650 4550 2650 4700
Wire Wire Line
	3050 4550 3050 4700
Wire Wire Line
	3250 4550 3250 4900
Wire Wire Line
	3450 4550 3450 4900
Connection ~ 2650 4700
Wire Wire Line
	2650 4700 2350 4700
Connection ~ 3050 4700
Wire Wire Line
	3050 4700 2650 4700
Wire Wire Line
	3250 4900 2350 4900
NoConn ~ 2850 4550
NoConn ~ 2850 6150
Wire Wire Line
	4650 5200 4350 5200
$Comp
L Connector_Generic:Conn_02x19_Odd_Even CN10
U 1 1 5F9666D8
P 8950 5150
F 0 "CN10" H 9000 6267 50  0000 C CNN
F 1 "Conn_02x19_Odd_Even" H 9000 6176 50  0000 C CNN
F 2 "" H 8950 5150 50  0001 C CNN
F 3 "~" H 8950 5150 50  0001 C CNN
	1    8950 5150
	1    0    0    -1  
$EndComp
$Comp
L Connector_Generic:Conn_02x19_Odd_Even CN7
U 1 1 5F96680A
P 8950 2850
F 0 "CN7" H 9000 3967 50  0000 C CNN
F 1 "Conn_02x19_Odd_Even" H 9000 3876 50  0000 C CNN
F 2 "" H 8950 2850 50  0001 C CNN
F 3 "~" H 8950 2850 50  0001 C CNN
	1    8950 2850
	1    0    0    -1  
$EndComp
Wire Wire Line
	4650 5400 4350 5400
Text Label 4400 5400 0    50   ~ 0
PC1
Text Label 4400 5200 0    50   ~ 0
PC2
Wire Wire Line
	9250 4950 9550 4950
Text Label 9350 4950 0    50   ~ 0
PC1
Wire Wire Line
	8750 3650 8450 3650
Text Label 8500 3650 0    50   ~ 0
PC2
Wire Wire Line
	6350 5200 6050 5200
Wire Wire Line
	6350 5400 6050 5400
Text Label 6150 5400 0    50   ~ 0
PC3
Text Label 6150 5200 0    50   ~ 0
PC0
Wire Wire Line
	8750 3750 8450 3750
Text Label 8500 3750 0    50   ~ 0
PC3
Wire Wire Line
	9250 5050 9550 5050
Text Label 9350 5050 0    50   ~ 0
PC0
Wire Wire Line
	4650 6800 4350 6800
Wire Wire Line
	4650 7000 4350 7000
Text Label 4400 7000 0    50   ~ 0
PC7
Text Label 4400 6800 0    50   ~ 0
PC6
Wire Wire Line
	9250 4350 9550 4350
Text Label 9350 4350 0    50   ~ 0
PC6
Wire Wire Line
	8750 5150 8450 5150
Text Label 8500 5150 0    50   ~ 0
PC7
Wire Wire Line
	6350 5600 6050 5600
Text Label 6150 5600 0    50   ~ 0
PA0
Wire Wire Line
	9550 3250 9250 3250
Text Label 9350 3250 0    50   ~ 0
PA0
Wire Wire Line
	9550 3350 9250 3350
Text Label 9350 3350 0    50   ~ 0
PA1
Wire Wire Line
	6350 7000 6050 7000
Text Label 6150 7000 0    50   ~ 0
PA4
Wire Wire Line
	9550 3450 9250 3450
Text Label 9350 3450 0    50   ~ 0
PA4
Wire Wire Line
	6350 6800 6050 6800
Text Label 6150 6800 0    50   ~ 0
PA1
$EndSCHEMATC
