EESchema Schematic File Version 4
LIBS:elektronikaĵoj-cache
EELAYER 26 0
EELAYER END
$Descr A4 11693 8268
encoding utf-8
Sheet 3 5
Title "LAUKOT-1"
Date "2020-10-07"
Rev "1.0"
Comp "Roboto-1"
Comment1 ""
Comment2 "Пеганов"
Comment3 ""
Comment4 ""
$EndDescr
$Comp
L elektronikaĵoj:MG996R M2
U 1 1 5F7D54E2
P 4400 1850
F 0 "M2" H 5077 1696 50  0000 L CNN
F 1 "MG996R" H 5077 1605 50  0000 L CNN
F 2 "" H 4400 1850 50  0001 C CNN
F 3 "" H 4400 1850 50  0001 C CNN
	1    4400 1850
	1    0    0    -1  
$EndComp
$Comp
L elektronikaĵoj:MG996R M3
U 1 1 5F7D56F4
P 4400 2750
F 0 "M3" H 5077 2596 50  0000 L CNN
F 1 "MG996R" H 5077 2505 50  0000 L CNN
F 2 "" H 4400 2750 50  0001 C CNN
F 3 "" H 4400 2750 50  0001 C CNN
	1    4400 2750
	1    0    0    -1  
$EndComp
Text Notes 4500 2450 0    50   ~ 0
Подъём ножа
Text Notes 4500 3350 0    50   ~ 0
Подача каретки
Wire Wire Line
	4400 2050 4300 2050
Wire Wire Line
	4300 2950 4400 2950
Wire Wire Line
	4400 3150 4200 3150
Wire Wire Line
	4400 2250 4200 2250
Wire Wire Line
	4200 2250 4200 3150
Wire Wire Line
	4300 2050 4300 2950
Connection ~ 4300 2050
Wire Wire Line
	4300 2050 4300 1650
Connection ~ 4200 3150
$Comp
L Device:R R9
U 1 1 5F7D6982
P 2800 1650
F 0 "R9" V 2593 1650 50  0000 C CNN
F 1 "1k8" V 2684 1650 50  0000 C CNN
F 2 "" V 2730 1650 50  0001 C CNN
F 3 "~" H 2800 1650 50  0001 C CNN
	1    2800 1650
	0    1    1    0   
$EndComp
$Comp
L Device:R R10
U 1 1 5F7D6A84
P 2800 2550
F 0 "R10" V 2593 2550 50  0000 C CNN
F 1 "1k8" V 2684 2550 50  0000 C CNN
F 2 "" V 2730 2550 50  0001 C CNN
F 3 "~" H 2800 2550 50  0001 C CNN
	1    2800 2550
	0    1    1    0   
$EndComp
$Comp
L Isolator:PC817 U5
U 1 1 5F7D6D54
P 3400 1750
F 0 "U5" H 3400 2075 50  0000 C CNN
F 1 "PC817" H 3400 1984 50  0000 C CNN
F 2 "Package_DIP:DIP-4_W7.62mm" H 3200 1550 50  0001 L CIN
F 3 "http://www.soselectronic.cz/a_info/resource/d/pc817.pdf" H 3400 1750 50  0001 L CNN
	1    3400 1750
	1    0    0    -1  
$EndComp
$Comp
L Isolator:PC817 U6
U 1 1 5F7D6E10
P 3400 2650
F 0 "U6" H 3400 2975 50  0000 C CNN
F 1 "PC817" H 3400 2884 50  0000 C CNN
F 2 "Package_DIP:DIP-4_W7.62mm" H 3200 2450 50  0001 L CIN
F 3 "http://www.soselectronic.cz/a_info/resource/d/pc817.pdf" H 3400 2650 50  0001 L CNN
	1    3400 2650
	1    0    0    -1  
$EndComp
$Comp
L Device:R R11
U 1 1 5F7D6ED3
P 3750 2050
F 0 "R11" H 3820 2096 50  0000 L CNN
F 1 "3k9" H 3820 2005 50  0000 L CNN
F 2 "" V 3680 2050 50  0001 C CNN
F 3 "~" H 3750 2050 50  0001 C CNN
	1    3750 2050
	1    0    0    -1  
$EndComp
$Comp
L Device:R R12
U 1 1 5F7D6F82
P 3750 2950
F 0 "R12" H 3820 2996 50  0000 L CNN
F 1 "3k9" H 3820 2905 50  0000 L CNN
F 2 "" V 3680 2950 50  0001 C CNN
F 3 "~" H 3750 2950 50  0001 C CNN
	1    3750 2950
	1    0    0    -1  
$EndComp
Wire Wire Line
	3750 2800 3750 2750
Wire Wire Line
	3750 2750 3700 2750
Wire Wire Line
	3750 2750 4400 2750
Connection ~ 3750 2750
Wire Wire Line
	3700 1850 3750 1850
Wire Wire Line
	3750 1900 3750 1850
Connection ~ 3750 1850
Wire Wire Line
	3750 1850 4400 1850
Wire Wire Line
	3750 2200 3750 2250
Wire Wire Line
	3750 2250 4200 2250
Connection ~ 4200 2250
Wire Wire Line
	3750 3100 3750 3150
Wire Wire Line
	3750 3150 4200 3150
Wire Wire Line
	3700 1650 4000 1650
Wire Wire Line
	4000 1650 4000 2550
Wire Wire Line
	4000 2550 3700 2550
Connection ~ 4000 1650
Wire Wire Line
	4000 1650 4300 1650
Wire Wire Line
	2650 2550 2400 2550
Wire Wire Line
	2400 2750 3050 2750
Wire Wire Line
	3050 2750 3050 1850
Wire Wire Line
	3050 1850 3100 1850
Connection ~ 3050 2750
Wire Wire Line
	3050 2750 3100 2750
Wire Wire Line
	3100 2550 2950 2550
Wire Wire Line
	3100 1650 2950 1650
Wire Wire Line
	2650 1650 2400 1650
Wire Wire Line
	4200 2250 4200 1200
Wire Wire Line
	4300 1000 4300 1650
Connection ~ 4300 1650
Text HLabel 3800 1000 0    50   UnSpc ~ 0
+5VP
Text HLabel 3800 1200 0    50   UnSpc ~ 0
PGND
Text HLabel 2400 1650 0    50   Input ~ 0
PWM_tranĉilo
Text HLabel 2400 2550 0    50   Input ~ 0
PWM_glitpeco
Text HLabel 2400 2750 0    50   UnSpc ~ 0
DGND
$Comp
L Switch:SW_Push_SPDT SW1
U 1 1 5F7E7688
P 6100 1750
F 0 "SW1" H 6100 2035 50  0000 C CNN
F 1 "SW_Limit" H 6100 1944 50  0000 C CNN
F 2 "" H 6100 1750 50  0001 C CNN
F 3 "" H 6100 1750 50  0001 C CNN
	1    6100 1750
	1    0    0    -1  
$EndComp
$Comp
L Switch:SW_Push_SPDT SW2
U 1 1 5F7E7801
P 6100 3450
F 0 "SW2" H 6100 3735 50  0000 C CNN
F 1 "SW_Limit" H 6100 3644 50  0000 C CNN
F 2 "" H 6100 3450 50  0001 C CNN
F 3 "" H 6100 3450 50  0001 C CNN
	1    6100 3450
	1    0    0    -1  
$EndComp
Connection ~ 4300 1000
Connection ~ 4200 1200
Wire Wire Line
	5800 1000 5800 1750
Wire Wire Line
	5800 3450 5900 3450
Wire Wire Line
	5900 1750 5800 1750
Connection ~ 5800 1750
Wire Wire Line
	5800 1750 5800 3450
$Comp
L Device:R R14
U 1 1 5F7EA690
P 6750 3800
F 0 "R14" H 6820 3846 50  0000 L CNN
F 1 "3k9" H 6820 3755 50  0000 L CNN
F 2 "" V 6680 3800 50  0001 C CNN
F 3 "~" H 6750 3800 50  0001 C CNN
	1    6750 3800
	1    0    0    -1  
$EndComp
Wire Wire Line
	6300 1850 6400 1850
Wire Wire Line
	6400 1850 6400 1950
Connection ~ 6400 1850
Text HLabel 8500 4400 2    50   Output ~ 0
right_limit
Text Label 5100 1200 2    50   ~ 0
PGND
Text Label 5100 1000 2    50   ~ 0
+5В
$Comp
L Isolator:PC817 U8
U 1 1 5F7F8074
P 7150 4300
F 0 "U8" H 7150 4625 50  0000 C CNN
F 1 "PC817" H 7150 4534 50  0000 C CNN
F 2 "Package_DIP:DIP-4_W7.62mm" H 6950 4100 50  0001 L CIN
F 3 "http://www.soselectronic.cz/a_info/resource/d/pc817.pdf" H 7150 4300 50  0001 L CNN
	1    7150 4300
	1    0    0    -1  
$EndComp
Wire Wire Line
	6750 4200 6850 4200
Wire Wire Line
	6850 4400 6400 4400
$Comp
L Device:C C2
U 1 1 5F7FEF59
P 6400 3800
F 0 "C2" H 6515 3846 50  0000 L CNN
F 1 "0.22" H 6515 3755 50  0000 L CNN
F 2 "" H 6438 3650 50  0001 C CNN
F 3 "~" H 6400 3800 50  0001 C CNN
	1    6400 3800
	1    0    0    -1  
$EndComp
Wire Wire Line
	6750 3950 6750 4200
Wire Wire Line
	6300 3550 6400 3550
Wire Wire Line
	6400 3550 6400 3650
Connection ~ 6400 3550
Wire Wire Line
	6400 3550 6750 3550
Wire Wire Line
	6750 3650 6750 3550
Wire Wire Line
	6400 3950 6400 4400
Connection ~ 6400 4400
Wire Wire Line
	6400 4400 5600 4400
Wire Wire Line
	5600 1200 5600 2700
$Comp
L Device:R R13
U 1 1 5F80ACDA
P 6750 2100
F 0 "R13" H 6820 2146 50  0000 L CNN
F 1 "3k9" H 6820 2055 50  0000 L CNN
F 2 "" V 6680 2100 50  0001 C CNN
F 3 "~" H 6750 2100 50  0001 C CNN
	1    6750 2100
	1    0    0    -1  
$EndComp
$Comp
L Isolator:PC817 U7
U 1 1 5F80ACE0
P 7150 2600
F 0 "U7" H 7150 2925 50  0000 C CNN
F 1 "PC817" H 7150 2834 50  0000 C CNN
F 2 "Package_DIP:DIP-4_W7.62mm" H 6950 2400 50  0001 L CIN
F 3 "http://www.soselectronic.cz/a_info/resource/d/pc817.pdf" H 7150 2600 50  0001 L CNN
	1    7150 2600
	1    0    0    -1  
$EndComp
Wire Wire Line
	6750 2500 6850 2500
Wire Wire Line
	6850 2700 6400 2700
$Comp
L Device:C C1
U 1 1 5F80ACE8
P 6400 2100
F 0 "C1" H 6515 2146 50  0000 L CNN
F 1 "0.22" H 6515 2055 50  0000 L CNN
F 2 "" H 6438 1950 50  0001 C CNN
F 3 "~" H 6400 2100 50  0001 C CNN
	1    6400 2100
	1    0    0    -1  
$EndComp
Wire Wire Line
	6750 2250 6750 2500
Wire Wire Line
	6400 2250 6400 2700
Connection ~ 6400 2700
Wire Wire Line
	6400 2700 5600 2700
Connection ~ 5600 2700
Wire Wire Line
	5600 2700 5600 4400
Wire Wire Line
	6750 1950 6750 1850
Wire Wire Line
	6400 1850 6750 1850
$Comp
L Device:R R15
U 1 1 5F81078D
P 7850 5500
F 0 "R15" H 7780 5454 50  0000 R CNN
F 1 "1k8" H 7780 5545 50  0000 R CNN
F 2 "" V 7780 5500 50  0001 C CNN
F 3 "~" H 7850 5500 50  0001 C CNN
	1    7850 5500
	-1   0    0    1   
$EndComp
Wire Wire Line
	7850 4400 7850 5350
Text Label 6000 5200 2    50   ~ 0
PGND
Text Label 2800 2750 2    50   ~ 0
DGND
Wire Wire Line
	7850 5650 7850 5750
Wire Wire Line
	7850 5750 7550 5750
Text Label 7400 5750 2    50   ~ 0
DGND
$Comp
L Device:R R16
U 1 1 5F817A74
P 8150 5500
F 0 "R16" H 8080 5454 50  0000 R CNN
F 1 "1k8" H 8080 5545 50  0000 R CNN
F 2 "" V 8080 5500 50  0001 C CNN
F 3 "~" H 8150 5500 50  0001 C CNN
	1    8150 5500
	-1   0    0    1   
$EndComp
Wire Wire Line
	7450 2700 8150 2700
Wire Wire Line
	8150 2700 8150 5350
Wire Wire Line
	7850 5750 8150 5750
Connection ~ 7850 5750
Wire Wire Line
	7450 4400 7850 4400
Connection ~ 7850 4400
Wire Wire Line
	7850 4400 8500 4400
Text HLabel 8500 2700 2    50   Output ~ 0
left_limit
Wire Wire Line
	8150 2700 8500 2700
Connection ~ 8150 2700
Wire Wire Line
	8150 5650 8150 5750
Wire Wire Line
	7450 4200 7550 4200
Wire Wire Line
	7550 4200 7550 2500
Wire Wire Line
	7550 2500 7450 2500
Wire Wire Line
	7550 2500 8500 2500
Connection ~ 7550 2500
Text HLabel 8500 2500 2    50   UnSpc ~ 0
3.3VD
Connection ~ 5600 1200
Connection ~ 5800 1000
Wire Wire Line
	5600 1200 6500 1200
Wire Wire Line
	5800 1000 6500 1000
Wire Wire Line
	3800 1200 4200 1200
Wire Wire Line
	3800 1000 4300 1000
Wire Wire Line
	4300 1000 5800 1000
Wire Wire Line
	4200 1200 5600 1200
$Comp
L Sensor_Proximity:CNY70 U?
U 1 1 5F920639
P 7150 5100
AR Path="/5F799016/5F920639" Ref="U?"  Part="1" 
AR Path="/5F7D4F16/5F920639" Ref="U14"  Part="1" 
F 0 "U14" H 7150 5417 50  0000 C CNN
F 1 "CNY70" H 7150 5326 50  0000 C CNN
F 2 "OptoDevice:Vishay_CNY70" H 7150 4900 50  0001 C CNN
F 3 "https://www.vishay.com/docs/83751/cny70.pdf" H 7150 5200 50  0001 C CNN
	1    7150 5100
	1    0    0    -1  
$EndComp
Wire Wire Line
	7450 5000 7550 5000
$Comp
L Device:R R?
U 1 1 5F920646
P 6500 5000
AR Path="/5F799016/5F920646" Ref="R?"  Part="1" 
AR Path="/5F7D4F16/5F920646" Ref="R37"  Part="1" 
F 0 "R37" V 6400 5050 50  0000 L CNN
F 1 "240" V 6400 4850 50  0000 L CNN
F 2 "" V 6430 5000 50  0001 C CNN
F 3 "~" H 6500 5000 50  0001 C CNN
	1    6500 5000
	0    -1   1    0   
$EndComp
Text HLabel 8500 5200 2    50   Output ~ 0
dough
Wire Wire Line
	6650 5000 6850 5000
Wire Wire Line
	7550 4200 7550 5000
Connection ~ 7550 4200
Wire Wire Line
	7450 5200 7550 5200
Wire Wire Line
	5600 5200 5600 4400
Connection ~ 5600 4400
Wire Wire Line
	5600 5200 6850 5200
Wire Wire Line
	6350 5000 5800 5000
Wire Wire Line
	5800 5000 5800 3450
Connection ~ 5800 3450
$Comp
L Device:R R38
U 1 1 5F956DB3
P 7550 5500
F 0 "R38" H 7480 5454 50  0000 R CNN
F 1 "1k8" H 7480 5545 50  0000 R CNN
F 2 "" V 7480 5500 50  0001 C CNN
F 3 "~" H 7550 5500 50  0001 C CNN
	1    7550 5500
	-1   0    0    1   
$EndComp
Wire Wire Line
	7550 5200 7550 5350
Wire Wire Line
	7550 5650 7550 5750
Connection ~ 7550 5200
Wire Wire Line
	7550 5200 8500 5200
Connection ~ 7550 5750
Wire Wire Line
	7550 5750 7200 5750
$EndSCHEMATC
