EESchema Schematic File Version 4
LIBS:elektronikaĵoj-cache
EELAYER 26 0
EELAYER END
$Descr A4 11693 8268
encoding utf-8
Sheet 5 5
Title "Пульт 6 кнопок"
Date "2020-10-10"
Rev "1.0"
Comp "Roboto-1"
Comment1 ""
Comment2 "Пеганов"
Comment3 ""
Comment4 ""
$EndDescr
$Comp
L Switch:SW_Push SW3
U 1 1 5F8172EB
P 4100 1200
F 0 "SW3" H 4100 1485 50  0000 C CNN
F 1 "SW_Push" H 4100 1394 50  0000 C CNN
F 2 "" H 4100 1400 50  0001 C CNN
F 3 "" H 4100 1400 50  0001 C CNN
	1    4100 1200
	1    0    0    -1  
$EndComp
$Comp
L Device:R R?
U 1 1 5F821128
P 4900 1450
AR Path="/5F7D4F16/5F821128" Ref="R?"  Part="1" 
AR Path="/5F816DF7/5F821128" Ref="R31"  Part="1" 
F 0 "R31" H 4830 1404 50  0000 R CNN
F 1 "1k8" H 4830 1495 50  0000 R CNN
F 2 "" V 4830 1450 50  0001 C CNN
F 3 "~" H 4900 1450 50  0001 C CNN
	1    4900 1450
	-1   0    0    1   
$EndComp
Wire Wire Line
	4900 1200 4900 1300
Wire Wire Line
	4900 1600 4900 1700
Text Label 3200 1700 2    50   ~ 0
DGND
Connection ~ 4900 1200
Wire Wire Line
	4900 1200 5350 1200
$Comp
L Device:C C?
U 1 1 5F834FF8
P 4450 1450
AR Path="/5F7D4F16/5F834FF8" Ref="C?"  Part="1" 
AR Path="/5F816DF7/5F834FF8" Ref="C8"  Part="1" 
F 0 "C8" H 4565 1496 50  0000 L CNN
F 1 "0.22" H 4565 1405 50  0000 L CNN
F 2 "" H 4488 1300 50  0001 C CNN
F 3 "~" H 4450 1450 50  0001 C CNN
	1    4450 1450
	1    0    0    -1  
$EndComp
Wire Wire Line
	4450 1600 4450 1700
Wire Wire Line
	4450 1300 4450 1200
Wire Wire Line
	4300 1200 4450 1200
Text Label 3550 1200 0    50   ~ 0
+V_SW
$Comp
L Diode:1.5KExxA D7
U 1 1 5F843725
P 5350 1450
F 0 "D7" V 5304 1529 50  0000 L CNN
F 1 "SMLVT3V3" V 5395 1529 50  0000 L CNN
F 2 "Diode_THT:D_DO-201AE_P15.24mm_Horizontal" H 5350 1250 50  0001 C CNN
F 3 "https://www.vishay.com/docs/88301/15ke.pdf" H 5300 1450 50  0001 C CNN
	1    5350 1450
	0    1    1    0   
$EndComp
Connection ~ 4450 1200
Wire Wire Line
	4450 1200 4900 1200
Wire Wire Line
	4450 1700 4900 1700
Wire Wire Line
	4900 1700 5350 1700
Connection ~ 4900 1700
Wire Wire Line
	5350 1600 5350 1700
Wire Wire Line
	5350 1300 5350 1200
$Comp
L Diode:1.5KExxA D6
U 1 1 5F852FF4
P 3450 1450
F 0 "D6" V 3404 1529 50  0000 L CNN
F 1 "SMLVT3V3" V 3495 1529 50  0000 L CNN
F 2 "Diode_THT:D_DO-201AE_P15.24mm_Horizontal" H 3450 1250 50  0001 C CNN
F 3 "https://www.vishay.com/docs/88301/15ke.pdf" H 3400 1450 50  0001 C CNN
	1    3450 1450
	0    1    1    0   
$EndComp
Wire Wire Line
	3450 1300 3450 1200
Connection ~ 3450 1200
Wire Wire Line
	3450 1200 3900 1200
Wire Wire Line
	3450 1600 3450 1700
Wire Wire Line
	3450 1700 4450 1700
Connection ~ 4450 1700
Text Label 3000 1200 0    50   ~ 0
+3.3V_D
Wire Wire Line
	3450 1700 2900 1700
Connection ~ 3450 1700
Wire Wire Line
	5350 1200 5850 1200
Connection ~ 5350 1200
Text Label 5650 1200 0    50   ~ 0
BT1
Text HLabel 5850 1200 2    50   Output ~ 0
BT1
$Comp
L Switch:SW_Push SW4
U 1 1 5F863669
P 4100 2200
F 0 "SW4" H 4100 2485 50  0000 C CNN
F 1 "SW_Push" H 4100 2394 50  0000 C CNN
F 2 "" H 4100 2400 50  0001 C CNN
F 3 "" H 4100 2400 50  0001 C CNN
	1    4100 2200
	1    0    0    -1  
$EndComp
$Comp
L Device:R R?
U 1 1 5F86366F
P 4900 2450
AR Path="/5F7D4F16/5F86366F" Ref="R?"  Part="1" 
AR Path="/5F816DF7/5F86366F" Ref="R32"  Part="1" 
F 0 "R32" H 4830 2404 50  0000 R CNN
F 1 "1k8" H 4830 2495 50  0000 R CNN
F 2 "" V 4830 2450 50  0001 C CNN
F 3 "~" H 4900 2450 50  0001 C CNN
	1    4900 2450
	-1   0    0    1   
$EndComp
Wire Wire Line
	4900 2200 4900 2300
Wire Wire Line
	4900 2600 4900 2700
Connection ~ 4900 2200
Wire Wire Line
	4900 2200 5350 2200
$Comp
L Device:C C?
U 1 1 5F863679
P 4450 2450
AR Path="/5F7D4F16/5F863679" Ref="C?"  Part="1" 
AR Path="/5F816DF7/5F863679" Ref="C9"  Part="1" 
F 0 "C9" H 4565 2496 50  0000 L CNN
F 1 "0.22" H 4565 2405 50  0000 L CNN
F 2 "" H 4488 2300 50  0001 C CNN
F 3 "~" H 4450 2450 50  0001 C CNN
	1    4450 2450
	1    0    0    -1  
$EndComp
Wire Wire Line
	4450 2600 4450 2700
Wire Wire Line
	4450 2300 4450 2200
Wire Wire Line
	4300 2200 4450 2200
$Comp
L Diode:1.5KExxA D8
U 1 1 5F863682
P 5350 2450
F 0 "D8" V 5304 2529 50  0000 L CNN
F 1 "SMLVT3V3" V 5395 2529 50  0000 L CNN
F 2 "Diode_THT:D_DO-201AE_P15.24mm_Horizontal" H 5350 2250 50  0001 C CNN
F 3 "https://www.vishay.com/docs/88301/15ke.pdf" H 5300 2450 50  0001 C CNN
	1    5350 2450
	0    1    1    0   
$EndComp
Connection ~ 4450 2200
Wire Wire Line
	4450 2200 4900 2200
Wire Wire Line
	4450 2700 4900 2700
Wire Wire Line
	4900 2700 5350 2700
Connection ~ 4900 2700
Wire Wire Line
	5350 2600 5350 2700
Wire Wire Line
	5350 2300 5350 2200
Wire Wire Line
	3450 2200 3900 2200
Wire Wire Line
	3450 2700 4450 2700
Connection ~ 4450 2700
Wire Wire Line
	5350 2200 5850 2200
Connection ~ 5350 2200
Text Label 5650 2200 0    50   ~ 0
BT2
Text HLabel 5850 2200 2    50   Output ~ 0
BT2
Text Label 3550 2200 0    50   ~ 0
+V_SW
Text Label 3800 2700 2    50   ~ 0
DGND
$Comp
L Switch:SW_Push SW5
U 1 1 5F866CC8
P 4100 3200
F 0 "SW5" H 4100 3485 50  0000 C CNN
F 1 "SW_Push" H 4100 3394 50  0000 C CNN
F 2 "" H 4100 3400 50  0001 C CNN
F 3 "" H 4100 3400 50  0001 C CNN
	1    4100 3200
	1    0    0    -1  
$EndComp
$Comp
L Device:R R?
U 1 1 5F866CCE
P 4900 3450
AR Path="/5F7D4F16/5F866CCE" Ref="R?"  Part="1" 
AR Path="/5F816DF7/5F866CCE" Ref="R33"  Part="1" 
F 0 "R33" H 4830 3404 50  0000 R CNN
F 1 "1k8" H 4830 3495 50  0000 R CNN
F 2 "" V 4830 3450 50  0001 C CNN
F 3 "~" H 4900 3450 50  0001 C CNN
	1    4900 3450
	-1   0    0    1   
$EndComp
Wire Wire Line
	4900 3200 4900 3300
Wire Wire Line
	4900 3600 4900 3700
Connection ~ 4900 3200
Wire Wire Line
	4900 3200 5350 3200
$Comp
L Device:C C?
U 1 1 5F866CD8
P 4450 3450
AR Path="/5F7D4F16/5F866CD8" Ref="C?"  Part="1" 
AR Path="/5F816DF7/5F866CD8" Ref="C10"  Part="1" 
F 0 "C10" H 4565 3496 50  0000 L CNN
F 1 "0.22" H 4565 3405 50  0000 L CNN
F 2 "" H 4488 3300 50  0001 C CNN
F 3 "~" H 4450 3450 50  0001 C CNN
	1    4450 3450
	1    0    0    -1  
$EndComp
Wire Wire Line
	4450 3600 4450 3700
Wire Wire Line
	4450 3300 4450 3200
Wire Wire Line
	4300 3200 4450 3200
$Comp
L Diode:1.5KExxA D9
U 1 1 5F866CE1
P 5350 3450
F 0 "D9" V 5304 3529 50  0000 L CNN
F 1 "SMLVT3V3" V 5395 3529 50  0000 L CNN
F 2 "Diode_THT:D_DO-201AE_P15.24mm_Horizontal" H 5350 3250 50  0001 C CNN
F 3 "https://www.vishay.com/docs/88301/15ke.pdf" H 5300 3450 50  0001 C CNN
	1    5350 3450
	0    1    1    0   
$EndComp
Connection ~ 4450 3200
Wire Wire Line
	4450 3200 4900 3200
Wire Wire Line
	4450 3700 4900 3700
Wire Wire Line
	4900 3700 5350 3700
Connection ~ 4900 3700
Wire Wire Line
	5350 3600 5350 3700
Wire Wire Line
	5350 3300 5350 3200
Wire Wire Line
	3450 3200 3900 3200
Wire Wire Line
	3450 3700 4450 3700
Connection ~ 4450 3700
Wire Wire Line
	5350 3200 5850 3200
Connection ~ 5350 3200
Text Label 5650 3200 0    50   ~ 0
BT3
Text HLabel 5850 3200 2    50   Output ~ 0
BT3
Text Label 3550 3200 0    50   ~ 0
+V_SW
Text Label 3800 3700 2    50   ~ 0
DGND
$Comp
L Switch:SW_Push SW6
U 1 1 5F867BEF
P 4100 4200
F 0 "SW6" H 4100 4485 50  0000 C CNN
F 1 "SW_Push" H 4100 4394 50  0000 C CNN
F 2 "" H 4100 4400 50  0001 C CNN
F 3 "" H 4100 4400 50  0001 C CNN
	1    4100 4200
	1    0    0    -1  
$EndComp
$Comp
L Device:R R?
U 1 1 5F867BF5
P 4900 4450
AR Path="/5F7D4F16/5F867BF5" Ref="R?"  Part="1" 
AR Path="/5F816DF7/5F867BF5" Ref="R34"  Part="1" 
F 0 "R34" H 4830 4404 50  0000 R CNN
F 1 "1k8" H 4830 4495 50  0000 R CNN
F 2 "" V 4830 4450 50  0001 C CNN
F 3 "~" H 4900 4450 50  0001 C CNN
	1    4900 4450
	-1   0    0    1   
$EndComp
Wire Wire Line
	4900 4200 4900 4300
Wire Wire Line
	4900 4600 4900 4700
Connection ~ 4900 4200
Wire Wire Line
	4900 4200 5350 4200
$Comp
L Device:C C?
U 1 1 5F867BFF
P 4450 4450
AR Path="/5F7D4F16/5F867BFF" Ref="C?"  Part="1" 
AR Path="/5F816DF7/5F867BFF" Ref="C11"  Part="1" 
F 0 "C11" H 4565 4496 50  0000 L CNN
F 1 "0.22" H 4565 4405 50  0000 L CNN
F 2 "" H 4488 4300 50  0001 C CNN
F 3 "~" H 4450 4450 50  0001 C CNN
	1    4450 4450
	1    0    0    -1  
$EndComp
Wire Wire Line
	4450 4600 4450 4700
Wire Wire Line
	4450 4300 4450 4200
Wire Wire Line
	4300 4200 4450 4200
$Comp
L Diode:1.5KExxA D10
U 1 1 5F867C08
P 5350 4450
F 0 "D10" V 5304 4529 50  0000 L CNN
F 1 "SMLVT3V3" V 5395 4529 50  0000 L CNN
F 2 "Diode_THT:D_DO-201AE_P15.24mm_Horizontal" H 5350 4250 50  0001 C CNN
F 3 "https://www.vishay.com/docs/88301/15ke.pdf" H 5300 4450 50  0001 C CNN
	1    5350 4450
	0    1    1    0   
$EndComp
Connection ~ 4450 4200
Wire Wire Line
	4450 4200 4900 4200
Wire Wire Line
	4450 4700 4900 4700
Wire Wire Line
	4900 4700 5350 4700
Connection ~ 4900 4700
Wire Wire Line
	5350 4600 5350 4700
Wire Wire Line
	5350 4300 5350 4200
Wire Wire Line
	3450 4200 3900 4200
Wire Wire Line
	3450 4700 4450 4700
Connection ~ 4450 4700
Wire Wire Line
	5350 4200 5850 4200
Connection ~ 5350 4200
Text Label 5650 4200 0    50   ~ 0
BT4
Text HLabel 5850 4200 2    50   Output ~ 0
BT4
Text Label 3550 4200 0    50   ~ 0
+V_SW
Text Label 3800 4700 2    50   ~ 0
DGND
$Comp
L Switch:SW_Push SW7
U 1 1 5F867C1E
P 4100 5200
F 0 "SW7" H 4100 5485 50  0000 C CNN
F 1 "SW_Push" H 4100 5394 50  0000 C CNN
F 2 "" H 4100 5400 50  0001 C CNN
F 3 "" H 4100 5400 50  0001 C CNN
	1    4100 5200
	1    0    0    -1  
$EndComp
$Comp
L Device:R R?
U 1 1 5F867C24
P 4900 5450
AR Path="/5F7D4F16/5F867C24" Ref="R?"  Part="1" 
AR Path="/5F816DF7/5F867C24" Ref="R35"  Part="1" 
F 0 "R35" H 4830 5404 50  0000 R CNN
F 1 "1k8" H 4830 5495 50  0000 R CNN
F 2 "" V 4830 5450 50  0001 C CNN
F 3 "~" H 4900 5450 50  0001 C CNN
	1    4900 5450
	-1   0    0    1   
$EndComp
Wire Wire Line
	4900 5200 4900 5300
Wire Wire Line
	4900 5600 4900 5700
Connection ~ 4900 5200
Wire Wire Line
	4900 5200 5350 5200
$Comp
L Device:C C?
U 1 1 5F867C2E
P 4450 5450
AR Path="/5F7D4F16/5F867C2E" Ref="C?"  Part="1" 
AR Path="/5F816DF7/5F867C2E" Ref="C12"  Part="1" 
F 0 "C12" H 4565 5496 50  0000 L CNN
F 1 "0.22" H 4565 5405 50  0000 L CNN
F 2 "" H 4488 5300 50  0001 C CNN
F 3 "~" H 4450 5450 50  0001 C CNN
	1    4450 5450
	1    0    0    -1  
$EndComp
Wire Wire Line
	4450 5600 4450 5700
Wire Wire Line
	4450 5300 4450 5200
Wire Wire Line
	4300 5200 4450 5200
$Comp
L Diode:1.5KExxA D11
U 1 1 5F867C37
P 5350 5450
F 0 "D11" V 5304 5529 50  0000 L CNN
F 1 "SMLVT3V3" V 5395 5529 50  0000 L CNN
F 2 "Diode_THT:D_DO-201AE_P15.24mm_Horizontal" H 5350 5250 50  0001 C CNN
F 3 "https://www.vishay.com/docs/88301/15ke.pdf" H 5300 5450 50  0001 C CNN
	1    5350 5450
	0    1    1    0   
$EndComp
Connection ~ 4450 5200
Wire Wire Line
	4450 5200 4900 5200
Wire Wire Line
	4450 5700 4900 5700
Wire Wire Line
	4900 5700 5350 5700
Connection ~ 4900 5700
Wire Wire Line
	5350 5600 5350 5700
Wire Wire Line
	5350 5300 5350 5200
Wire Wire Line
	3450 5200 3900 5200
Wire Wire Line
	3450 5700 4450 5700
Connection ~ 4450 5700
Wire Wire Line
	5350 5200 5850 5200
Connection ~ 5350 5200
Text Label 5650 5200 0    50   ~ 0
BT5
Text HLabel 5850 5200 2    50   Output ~ 0
BT5
Text Label 3550 5200 0    50   ~ 0
+V_SW
Text Label 3800 5700 2    50   ~ 0
DGND
$Comp
L Switch:SW_Push SW8
U 1 1 5F8697E6
P 4100 6200
F 0 "SW8" H 4100 6485 50  0000 C CNN
F 1 "SW_Push" H 4100 6394 50  0000 C CNN
F 2 "" H 4100 6400 50  0001 C CNN
F 3 "" H 4100 6400 50  0001 C CNN
	1    4100 6200
	1    0    0    -1  
$EndComp
$Comp
L Device:R R?
U 1 1 5F8697EC
P 4900 6450
AR Path="/5F7D4F16/5F8697EC" Ref="R?"  Part="1" 
AR Path="/5F816DF7/5F8697EC" Ref="R36"  Part="1" 
F 0 "R36" H 4830 6404 50  0000 R CNN
F 1 "1k8" H 4830 6495 50  0000 R CNN
F 2 "" V 4830 6450 50  0001 C CNN
F 3 "~" H 4900 6450 50  0001 C CNN
	1    4900 6450
	-1   0    0    1   
$EndComp
Wire Wire Line
	4900 6200 4900 6300
Wire Wire Line
	4900 6600 4900 6700
Connection ~ 4900 6200
Wire Wire Line
	4900 6200 5350 6200
$Comp
L Device:C C?
U 1 1 5F8697F6
P 4450 6450
AR Path="/5F7D4F16/5F8697F6" Ref="C?"  Part="1" 
AR Path="/5F816DF7/5F8697F6" Ref="C13"  Part="1" 
F 0 "C13" H 4565 6496 50  0000 L CNN
F 1 "0.22" H 4565 6405 50  0000 L CNN
F 2 "" H 4488 6300 50  0001 C CNN
F 3 "~" H 4450 6450 50  0001 C CNN
	1    4450 6450
	1    0    0    -1  
$EndComp
Wire Wire Line
	4450 6600 4450 6700
Wire Wire Line
	4450 6300 4450 6200
Wire Wire Line
	4300 6200 4450 6200
$Comp
L Diode:1.5KExxA D12
U 1 1 5F8697FF
P 5350 6450
F 0 "D12" V 5304 6529 50  0000 L CNN
F 1 "SMLVT3V3" V 5395 6529 50  0000 L CNN
F 2 "Diode_THT:D_DO-201AE_P15.24mm_Horizontal" H 5350 6250 50  0001 C CNN
F 3 "https://www.vishay.com/docs/88301/15ke.pdf" H 5300 6450 50  0001 C CNN
	1    5350 6450
	0    1    1    0   
$EndComp
Connection ~ 4450 6200
Wire Wire Line
	4450 6200 4900 6200
Wire Wire Line
	4450 6700 4900 6700
Wire Wire Line
	4900 6700 5350 6700
Connection ~ 4900 6700
Wire Wire Line
	5350 6600 5350 6700
Wire Wire Line
	5350 6300 5350 6200
Wire Wire Line
	3450 6200 3900 6200
Wire Wire Line
	3450 6700 4450 6700
Connection ~ 4450 6700
Wire Wire Line
	5350 6200 5850 6200
Connection ~ 5350 6200
Text Label 5650 6200 0    50   ~ 0
BT6
Text HLabel 5850 6200 2    50   Output ~ 0
BT6
Text Label 3550 6200 0    50   ~ 0
+V_SW
Text Label 3800 6700 2    50   ~ 0
DGND
Wire Wire Line
	2900 1200 3450 1200
Text HLabel 2900 1200 0    50   UnSpc ~ 0
+3.3VD
Text HLabel 2900 1700 0    50   UnSpc ~ 0
DGND
$EndSCHEMATC
