ISO-10303-21;
HEADER;
FILE_DESCRIPTION( ( 'STEP AP214' ), '1' );
FILE_NAME( 'p:/temp/worker_18/temp/exporttempdir_4748_11_2daw7/format_2/SK8.stp', '2021-08-24T21:38:57', ( 'License CC BY-ND 4.0' ), ( 'CADENAS' ), ' ', 'PARTsolutions', ' ' );
FILE_SCHEMA( ( 'AUTOMOTIVE_DESIGN { 1 0 10303 214 1 1 1 1 }' ) );
ENDSEC;
DATA;
#1 = MECHANICAL_DESIGN_GEOMETRIC_PRESENTATION_REPRESENTATION( ' ', ( #10, #11, #12, #13, #14, #15, #16, #17, #18, #19, #20, #21, #22, #23, #24, #25 ), #6 );
#2 = PRODUCT_DEFINITION_CONTEXT( '', #26, 'design' );
#3 = APPLICATION_PROTOCOL_DEFINITION( 'international standard', 'automotive_design', 2001, #26 );
#4 = PRODUCT_CATEGORY_RELATIONSHIP( 'NONE', 'NONE', #27, #28 );
#5 = SHAPE_DEFINITION_REPRESENTATION( #29, #30 );
#6 =  ( GEOMETRIC_REPRESENTATION_CONTEXT( 3 )GLOBAL_UNCERTAINTY_ASSIGNED_CONTEXT( ( #33 ) )GLOBAL_UNIT_ASSIGNED_CONTEXT( ( #35, #36, #37 ) )REPRESENTATION_CONTEXT( 'NONE', 'WORKSPACE' ) );
#10 = STYLED_ITEM( '', ( #39 ), #40 );
#11 = STYLED_ITEM( '', ( #41 ), #42 );
#12 = STYLED_ITEM( '', ( #43 ), #44 );
#13 = STYLED_ITEM( '', ( #45 ), #46 );
#14 = STYLED_ITEM( '', ( #47 ), #48 );
#15 = STYLED_ITEM( '', ( #49 ), #50 );
#16 = STYLED_ITEM( '', ( #51 ), #52 );
#17 = STYLED_ITEM( '', ( #53 ), #54 );
#18 = STYLED_ITEM( '', ( #55 ), #56 );
#19 = STYLED_ITEM( '', ( #57 ), #58 );
#20 = STYLED_ITEM( '', ( #59 ), #60 );
#21 = STYLED_ITEM( '', ( #61 ), #62 );
#22 = STYLED_ITEM( '', ( #63 ), #64 );
#23 = STYLED_ITEM( '', ( #65 ), #66 );
#24 = STYLED_ITEM( '', ( #67 ), #68 );
#25 = STYLED_ITEM( '', ( #69 ), #70 );
#26 = APPLICATION_CONTEXT( 'core data for automotive mechanical design processes' );
#27 = PRODUCT_CATEGORY( 'part', 'NONE' );
#28 = PRODUCT_RELATED_PRODUCT_CATEGORY( 'detail', ' ', ( #71 ) );
#29 = PRODUCT_DEFINITION_SHAPE( 'NONE', 'NONE', #72 );
#30 = ADVANCED_BREP_SHAPE_REPRESENTATION( '_SK8', ( #73, #74 ), #6 );
#33 = UNCERTAINTY_MEASURE_WITH_UNIT( LENGTH_MEASURE( 0.00100000000000000 ), #35, '', '' );
#35 =  ( CONVERSION_BASED_UNIT( 'MILLIMETRE', #77 )LENGTH_UNIT(  )NAMED_UNIT( #80 ) );
#36 =  ( NAMED_UNIT( #82 )PLANE_ANGLE_UNIT(  )SI_UNIT( $, .RADIAN. ) );
#37 =  ( NAMED_UNIT( #82 )SI_UNIT( $, .STERADIAN. )SOLID_ANGLE_UNIT(  ) );
#39 = PRESENTATION_STYLE_ASSIGNMENT( ( #88 ) );
#40 = ADVANCED_FACE( '', ( #89 ), #90, .F. );
#41 = PRESENTATION_STYLE_ASSIGNMENT( ( #91 ) );
#42 = ADVANCED_FACE( '', ( #92, #93 ), #94, .F. );
#43 = PRESENTATION_STYLE_ASSIGNMENT( ( #95 ) );
#44 = ADVANCED_FACE( '', ( #96 ), #97, .F. );
#45 = PRESENTATION_STYLE_ASSIGNMENT( ( #98 ) );
#46 = ADVANCED_FACE( '', ( #99 ), #100, .F. );
#47 = PRESENTATION_STYLE_ASSIGNMENT( ( #101 ) );
#48 = ADVANCED_FACE( '', ( #102, #103 ), #104, .F. );
#49 = PRESENTATION_STYLE_ASSIGNMENT( ( #105 ) );
#50 = ADVANCED_FACE( '', ( #106 ), #107, .F. );
#51 = PRESENTATION_STYLE_ASSIGNMENT( ( #108 ) );
#52 = ADVANCED_FACE( '', ( #109 ), #110, .F. );
#53 = PRESENTATION_STYLE_ASSIGNMENT( ( #111 ) );
#54 = ADVANCED_FACE( '', ( #112 ), #113, .F. );
#55 = PRESENTATION_STYLE_ASSIGNMENT( ( #114 ) );
#56 = ADVANCED_FACE( '', ( #115, #116 ), #117, .F. );
#57 = PRESENTATION_STYLE_ASSIGNMENT( ( #118 ) );
#58 = ADVANCED_FACE( '', ( #119 ), #120, .T. );
#59 = PRESENTATION_STYLE_ASSIGNMENT( ( #121 ) );
#60 = ADVANCED_FACE( '', ( #122 ), #123, .F. );
#61 = PRESENTATION_STYLE_ASSIGNMENT( ( #124 ) );
#62 = ADVANCED_FACE( '', ( #125 ), #126, .F. );
#63 = PRESENTATION_STYLE_ASSIGNMENT( ( #127 ) );
#64 = ADVANCED_FACE( '', ( #128, #129, #130 ), #131, .F. );
#65 = PRESENTATION_STYLE_ASSIGNMENT( ( #132 ) );
#66 = ADVANCED_FACE( '', ( #133, #134 ), #135, .F. );
#67 = PRESENTATION_STYLE_ASSIGNMENT( ( #136 ) );
#68 = ADVANCED_FACE( '', ( #137 ), #138, .F. );
#69 = PRESENTATION_STYLE_ASSIGNMENT( ( #139 ) );
#70 = ADVANCED_FACE( '', ( #140 ), #141, .F. );
#71 = PRODUCT( '_SK8', '_SK8', 'PART-_SK8-DESC', ( #142 ) );
#72 = PRODUCT_DEFINITION( 'NONE', 'NONE', #143, #2 );
#73 = MANIFOLD_SOLID_BREP( '_SK8', #144 );
#74 = AXIS2_PLACEMENT_3D( '', #145, #146, #147 );
#77 = LENGTH_MEASURE_WITH_UNIT( LENGTH_MEASURE( 1.00000000000000 ), #148 );
#80 = DIMENSIONAL_EXPONENTS( 1.00000000000000, 0.000000000000000, 0.000000000000000, 0.000000000000000, 0.000000000000000, 0.000000000000000, 0.000000000000000 );
#82 = DIMENSIONAL_EXPONENTS( 0.000000000000000, 0.000000000000000, 0.000000000000000, 0.000000000000000, 0.000000000000000, 0.000000000000000, 0.000000000000000 );
#88 = SURFACE_STYLE_USAGE( .BOTH., #149 );
#89 = FACE_OUTER_BOUND( '', #150, .T. );
#90 = PLANE( '', #151 );
#91 = SURFACE_STYLE_USAGE( .BOTH., #152 );
#92 = FACE_OUTER_BOUND( '', #153, .T. );
#93 = FACE_OUTER_BOUND( '', #154, .T. );
#94 = CYLINDRICAL_SURFACE( '', #155, 2.75000000000000 );
#95 = SURFACE_STYLE_USAGE( .BOTH., #156 );
#96 = FACE_OUTER_BOUND( '', #157, .T. );
#97 = PLANE( '', #158 );
#98 = SURFACE_STYLE_USAGE( .BOTH., #159 );
#99 = FACE_OUTER_BOUND( '', #160, .T. );
#100 = PLANE( '', #161 );
#101 = SURFACE_STYLE_USAGE( .BOTH., #162 );
#102 = FACE_BOUND( '', #163, .T. );
#103 = FACE_OUTER_BOUND( '', #164, .T. );
#104 = PLANE( '', #165 );
#105 = SURFACE_STYLE_USAGE( .BOTH., #166 );
#106 = FACE_OUTER_BOUND( '', #167, .T. );
#107 = PLANE( '', #168 );
#108 = SURFACE_STYLE_USAGE( .BOTH., #169 );
#109 = FACE_OUTER_BOUND( '', #170, .T. );
#110 = PLANE( '', #171 );
#111 = SURFACE_STYLE_USAGE( .BOTH., #172 );
#112 = FACE_OUTER_BOUND( '', #173, .T. );
#113 = CYLINDRICAL_SURFACE( '', #174, 4.00000000000000 );
#114 = SURFACE_STYLE_USAGE( .BOTH., #175 );
#115 = FACE_BOUND( '', #176, .T. );
#116 = FACE_OUTER_BOUND( '', #177, .T. );
#117 = PLANE( '', #178 );
#118 = SURFACE_STYLE_USAGE( .BOTH., #179 );
#119 = FACE_OUTER_BOUND( '', #180, .T. );
#120 = PLANE( '', #181 );
#121 = SURFACE_STYLE_USAGE( .BOTH., #182 );
#122 = FACE_OUTER_BOUND( '', #183, .T. );
#123 = PLANE( '', #184 );
#124 = SURFACE_STYLE_USAGE( .BOTH., #185 );
#125 = FACE_OUTER_BOUND( '', #186, .T. );
#126 = PLANE( '', #187 );
#127 = SURFACE_STYLE_USAGE( .BOTH., #188 );
#128 = FACE_BOUND( '', #189, .T. );
#129 = FACE_BOUND( '', #190, .T. );
#130 = FACE_OUTER_BOUND( '', #191, .T. );
#131 = PLANE( '', #192 );
#132 = SURFACE_STYLE_USAGE( .BOTH., #193 );
#133 = FACE_OUTER_BOUND( '', #194, .T. );
#134 = FACE_OUTER_BOUND( '', #195, .T. );
#135 = CYLINDRICAL_SURFACE( '', #196, 2.75000000000000 );
#136 = SURFACE_STYLE_USAGE( .BOTH., #197 );
#137 = FACE_OUTER_BOUND( '', #198, .T. );
#138 = PLANE( '', #199 );
#139 = SURFACE_STYLE_USAGE( .BOTH., #200 );
#140 = FACE_OUTER_BOUND( '', #201, .T. );
#141 = PLANE( '', #202 );
#142 = PRODUCT_CONTEXT( '', #26, 'mechanical' );
#143 = PRODUCT_DEFINITION_FORMATION_WITH_SPECIFIED_SOURCE( ' ', 'NONE', #71, .NOT_KNOWN. );
#144 = CLOSED_SHELL( '', ( #62, #58, #52, #48, #60, #64, #66, #42, #68, #46, #56, #50, #44, #70, #54, #40 ) );
#145 = CARTESIAN_POINT( '', ( 0.000000000000000, 0.000000000000000, 0.000000000000000 ) );
#146 = DIRECTION( '', ( 0.000000000000000, 0.000000000000000, 1.00000000000000 ) );
#147 = DIRECTION( '', ( 1.00000000000000, 0.000000000000000, 0.000000000000000 ) );
#148 =  ( LENGTH_UNIT(  )NAMED_UNIT( #80 )SI_UNIT( .MILLI., .METRE. ) );
#149 = SURFACE_SIDE_STYLE( '', ( #204 ) );
#150 = EDGE_LOOP( '', ( #205, #206, #207, #208 ) );
#151 = AXIS2_PLACEMENT_3D( '', #209, #210, #211 );
#152 = SURFACE_SIDE_STYLE( '', ( #212 ) );
#153 = EDGE_LOOP( '', ( #213 ) );
#154 = EDGE_LOOP( '', ( #214 ) );
#155 = AXIS2_PLACEMENT_3D( '', #215, #216, #217 );
#156 = SURFACE_SIDE_STYLE( '', ( #218 ) );
#157 = EDGE_LOOP( '', ( #219, #220, #221, #222 ) );
#158 = AXIS2_PLACEMENT_3D( '', #223, #224, #225 );
#159 = SURFACE_SIDE_STYLE( '', ( #226 ) );
#160 = EDGE_LOOP( '', ( #227, #228, #229, #230 ) );
#161 = AXIS2_PLACEMENT_3D( '', #231, #232, #233 );
#162 = SURFACE_SIDE_STYLE( '', ( #234 ) );
#163 = EDGE_LOOP( '', ( #235 ) );
#164 = EDGE_LOOP( '', ( #236, #237, #238, #239 ) );
#165 = AXIS2_PLACEMENT_3D( '', #240, #241, #242 );
#166 = SURFACE_SIDE_STYLE( '', ( #243 ) );
#167 = EDGE_LOOP( '', ( #244, #245, #246, #247 ) );
#168 = AXIS2_PLACEMENT_3D( '', #248, #249, #250 );
#169 = SURFACE_SIDE_STYLE( '', ( #251 ) );
#170 = EDGE_LOOP( '', ( #252, #253, #254, #255 ) );
#171 = AXIS2_PLACEMENT_3D( '', #256, #257, #258 );
#172 = SURFACE_SIDE_STYLE( '', ( #259 ) );
#173 = EDGE_LOOP( '', ( #260, #261, #262, #263 ) );
#174 = AXIS2_PLACEMENT_3D( '', #264, #265, #266 );
#175 = SURFACE_SIDE_STYLE( '', ( #267 ) );
#176 = EDGE_LOOP( '', ( #268 ) );
#177 = EDGE_LOOP( '', ( #269, #270, #271, #272 ) );
#178 = AXIS2_PLACEMENT_3D( '', #273, #274, #275 );
#179 = SURFACE_SIDE_STYLE( '', ( #276 ) );
#180 = EDGE_LOOP( '', ( #277, #278, #279, #280, #281, #282, #283, #284, #285, #286, #287, #288 ) );
#181 = AXIS2_PLACEMENT_3D( '', #289, #290, #291 );
#182 = SURFACE_SIDE_STYLE( '', ( #292 ) );
#183 = EDGE_LOOP( '', ( #293, #294, #295, #296 ) );
#184 = AXIS2_PLACEMENT_3D( '', #297, #298, #299 );
#185 = SURFACE_SIDE_STYLE( '', ( #300 ) );
#186 = EDGE_LOOP( '', ( #301, #302, #303, #304 ) );
#187 = AXIS2_PLACEMENT_3D( '', #305, #306, #307 );
#188 = SURFACE_SIDE_STYLE( '', ( #308 ) );
#189 = EDGE_LOOP( '', ( #309 ) );
#190 = EDGE_LOOP( '', ( #310 ) );
#191 = EDGE_LOOP( '', ( #311, #312, #313, #314 ) );
#192 = AXIS2_PLACEMENT_3D( '', #315, #316, #317 );
#193 = SURFACE_SIDE_STYLE( '', ( #318 ) );
#194 = EDGE_LOOP( '', ( #319 ) );
#195 = EDGE_LOOP( '', ( #320 ) );
#196 = AXIS2_PLACEMENT_3D( '', #321, #322, #323 );
#197 = SURFACE_SIDE_STYLE( '', ( #324 ) );
#198 = EDGE_LOOP( '', ( #325, #326, #327, #328, #329, #330, #331, #332, #333, #334, #335, #336 ) );
#199 = AXIS2_PLACEMENT_3D( '', #337, #338, #339 );
#200 = SURFACE_SIDE_STYLE( '', ( #340 ) );
#201 = EDGE_LOOP( '', ( #341, #342, #343, #344 ) );
#202 = AXIS2_PLACEMENT_3D( '', #345, #346, #347 );
#204 = SURFACE_STYLE_FILL_AREA( #348 );
#205 = ORIENTED_EDGE( '', *, *, #349, .T. );
#206 = ORIENTED_EDGE( '', *, *, #350, .F. );
#207 = ORIENTED_EDGE( '', *, *, #351, .F. );
#208 = ORIENTED_EDGE( '', *, *, #352, .T. );
#209 = CARTESIAN_POINT( '', ( -0.399999999999999, 23.9799497484265, 7.00000000000000 ) );
#210 = DIRECTION( '', ( -1.00000000000000, 6.14623580116270E-18, 0.000000000000000 ) );
#211 = DIRECTION( '', ( -6.14623580116270E-18, -1.00000000000000, 0.000000000000000 ) );
#212 = SURFACE_STYLE_FILL_AREA( #353 );
#213 = ORIENTED_EDGE( '', *, *, #354, .T. );
#214 = ORIENTED_EDGE( '', *, *, #355, .F. );
#215 = CARTESIAN_POINT( '', ( 16.0000000000000, 0.000000000000000, 0.000000000000000 ) );
#216 = DIRECTION( '', ( -0.000000000000000, 1.00000000000000, 0.000000000000000 ) );
#217 = DIRECTION( '', ( 0.000000000000000, 0.000000000000000, -1.00000000000000 ) );
#218 = SURFACE_STYLE_FILL_AREA( #356 );
#219 = ORIENTED_EDGE( '', *, *, #357, .T. );
#220 = ORIENTED_EDGE( '', *, *, #358, .F. );
#221 = ORIENTED_EDGE( '', *, *, #359, .F. );
#222 = ORIENTED_EDGE( '', *, *, #360, .T. );
#223 = CARTESIAN_POINT( '', ( 9.00000000000000, 32.8000000000000, 7.00000000000000 ) );
#224 = DIRECTION( '', ( 0.000000000000000, -1.00000000000000, 0.000000000000000 ) );
#225 = DIRECTION( '', ( 0.000000000000000, 0.000000000000000, -1.00000000000000 ) );
#226 = SURFACE_STYLE_FILL_AREA( #361 );
#227 = ORIENTED_EDGE( '', *, *, #362, .T. );
#228 = ORIENTED_EDGE( '', *, *, #363, .F. );
#229 = ORIENTED_EDGE( '', *, *, #364, .F. );
#230 = ORIENTED_EDGE( '', *, *, #365, .T. );
#231 = CARTESIAN_POINT( '', ( 21.0000000000000, 0.000000000000000, 7.00000000000000 ) );
#232 = DIRECTION( '', ( -1.00000000000000, 0.000000000000000, 0.000000000000000 ) );
#233 = DIRECTION( '', ( 0.000000000000000, 0.000000000000000, 1.00000000000000 ) );
#234 = SURFACE_STYLE_FILL_AREA( #366 );
#235 = ORIENTED_EDGE( '', *, *, #367, .T. );
#236 = ORIENTED_EDGE( '', *, *, #368, .T. );
#237 = ORIENTED_EDGE( '', *, *, #369, .F. );
#238 = ORIENTED_EDGE( '', *, *, #370, .F. );
#239 = ORIENTED_EDGE( '', *, *, #371, .T. );
#240 = CARTESIAN_POINT( '', ( -9.00000000000000, 6.00000000000001, 7.00000000000000 ) );
#241 = DIRECTION( '', ( 2.89120579329468E-16, -1.00000000000000, 0.000000000000000 ) );
#242 = DIRECTION( '', ( 1.00000000000000, 2.89120579329468E-16, 0.000000000000000 ) );
#243 = SURFACE_STYLE_FILL_AREA( #372 );
#244 = ORIENTED_EDGE( '', *, *, #373, .T. );
#245 = ORIENTED_EDGE( '', *, *, #360, .F. );
#246 = ORIENTED_EDGE( '', *, *, #374, .F. );
#247 = ORIENTED_EDGE( '', *, *, #375, .T. );
#248 = CARTESIAN_POINT( '', ( 9.00000000000000, 6.00000000000001, 7.00000000000000 ) );
#249 = DIRECTION( '', ( -1.00000000000000, 0.000000000000000, 0.000000000000000 ) );
#250 = DIRECTION( '', ( 0.000000000000000, 0.000000000000000, 1.00000000000000 ) );
#251 = SURFACE_STYLE_FILL_AREA( #376 );
#252 = ORIENTED_EDGE( '', *, *, #377, .T. );
#253 = ORIENTED_EDGE( '', *, *, #378, .F. );
#254 = ORIENTED_EDGE( '', *, *, #379, .F. );
#255 = ORIENTED_EDGE( '', *, *, #350, .T. );
#256 = CARTESIAN_POINT( '', ( -0.399999999999999, 32.8000000000000, 7.00000000000000 ) );
#257 = DIRECTION( '', ( 0.000000000000000, -1.00000000000000, 0.000000000000000 ) );
#258 = DIRECTION( '', ( 0.000000000000000, 0.000000000000000, -1.00000000000000 ) );
#259 = SURFACE_STYLE_FILL_AREA( #380 );
#260 = ORIENTED_EDGE( '', *, *, #381, .F. );
#261 = ORIENTED_EDGE( '', *, *, #352, .F. );
#262 = ORIENTED_EDGE( '', *, *, #382, .T. );
#263 = ORIENTED_EDGE( '', *, *, #383, .T. );
#264 = CARTESIAN_POINT( '', ( 8.67361737988404E-16, 20.0000000000000, 7.00000000000000 ) );
#265 = DIRECTION( '', ( 0.000000000000000, -0.000000000000000, 1.00000000000000 ) );
#266 = DIRECTION( '', ( -1.00000000000000, 0.000000000000000, 0.000000000000000 ) );
#267 = SURFACE_STYLE_FILL_AREA( #384 );
#268 = ORIENTED_EDGE( '', *, *, #355, .T. );
#269 = ORIENTED_EDGE( '', *, *, #385, .T. );
#270 = ORIENTED_EDGE( '', *, *, #375, .F. );
#271 = ORIENTED_EDGE( '', *, *, #386, .F. );
#272 = ORIENTED_EDGE( '', *, *, #363, .T. );
#273 = CARTESIAN_POINT( '', ( 21.0000000000000, 6.00000000000000, 7.00000000000000 ) );
#274 = DIRECTION( '', ( -7.95081593156037E-16, -1.00000000000000, 0.000000000000000 ) );
#275 = DIRECTION( '', ( 1.00000000000000, -7.95081593156037E-16, 0.000000000000000 ) );
#276 = SURFACE_STYLE_FILL_AREA( #387 );
#277 = ORIENTED_EDGE( '', *, *, #370, .T. );
#278 = ORIENTED_EDGE( '', *, *, #388, .T. );
#279 = ORIENTED_EDGE( '', *, *, #389, .T. );
#280 = ORIENTED_EDGE( '', *, *, #364, .T. );
#281 = ORIENTED_EDGE( '', *, *, #386, .T. );
#282 = ORIENTED_EDGE( '', *, *, #374, .T. );
#283 = ORIENTED_EDGE( '', *, *, #359, .T. );
#284 = ORIENTED_EDGE( '', *, *, #390, .T. );
#285 = ORIENTED_EDGE( '', *, *, #382, .F. );
#286 = ORIENTED_EDGE( '', *, *, #351, .T. );
#287 = ORIENTED_EDGE( '', *, *, #379, .T. );
#288 = ORIENTED_EDGE( '', *, *, #391, .T. );
#289 = CARTESIAN_POINT( '', ( 8.67361737988404E-16, 20.0000000000000, 7.00000000000000 ) );
#290 = DIRECTION( '', ( 0.000000000000000, 0.000000000000000, 1.00000000000000 ) );
#291 = DIRECTION( '', ( 1.00000000000000, 0.000000000000000, -0.000000000000000 ) );
#292 = SURFACE_STYLE_FILL_AREA( #392 );
#293 = ORIENTED_EDGE( '', *, *, #393, .T. );
#294 = ORIENTED_EDGE( '', *, *, #394, .F. );
#295 = ORIENTED_EDGE( '', *, *, #388, .F. );
#296 = ORIENTED_EDGE( '', *, *, #369, .T. );
#297 = CARTESIAN_POINT( '', ( -21.0000000000000, 6.00000000000000, 7.00000000000000 ) );
#298 = DIRECTION( '', ( 1.00000000000000, 0.000000000000000, -0.000000000000000 ) );
#299 = DIRECTION( '', ( -0.000000000000000, 0.000000000000000, -1.00000000000000 ) );
#300 = SURFACE_STYLE_FILL_AREA( #395 );
#301 = ORIENTED_EDGE( '', *, *, #396, .T. );
#302 = ORIENTED_EDGE( '', *, *, #371, .F. );
#303 = ORIENTED_EDGE( '', *, *, #391, .F. );
#304 = ORIENTED_EDGE( '', *, *, #378, .T. );
#305 = CARTESIAN_POINT( '', ( -9.00000000000000, 32.8000000000000, 7.00000000000000 ) );
#306 = DIRECTION( '', ( 1.00000000000000, 0.000000000000000, -0.000000000000000 ) );
#307 = DIRECTION( '', ( -0.000000000000000, 0.000000000000000, -1.00000000000000 ) );
#308 = SURFACE_STYLE_FILL_AREA( #397 );
#309 = ORIENTED_EDGE( '', *, *, #354, .F. );
#310 = ORIENTED_EDGE( '', *, *, #398, .F. );
#311 = ORIENTED_EDGE( '', *, *, #399, .T. );
#312 = ORIENTED_EDGE( '', *, *, #365, .F. );
#313 = ORIENTED_EDGE( '', *, *, #389, .F. );
#314 = ORIENTED_EDGE( '', *, *, #394, .T. );
#315 = CARTESIAN_POINT( '', ( -21.0000000000000, 0.000000000000000, 7.00000000000000 ) );
#316 = DIRECTION( '', ( 0.000000000000000, 1.00000000000000, 0.000000000000000 ) );
#317 = DIRECTION( '', ( 0.000000000000000, -0.000000000000000, 1.00000000000000 ) );
#318 = SURFACE_STYLE_FILL_AREA( #400 );
#319 = ORIENTED_EDGE( '', *, *, #398, .T. );
#320 = ORIENTED_EDGE( '', *, *, #367, .F. );
#321 = CARTESIAN_POINT( '', ( -16.0000000000000, 0.000000000000000, 0.000000000000000 ) );
#322 = DIRECTION( '', ( -0.000000000000000, 1.00000000000000, 0.000000000000000 ) );
#323 = DIRECTION( '', ( 0.000000000000000, 0.000000000000000, -1.00000000000000 ) );
#324 = SURFACE_STYLE_FILL_AREA( #401 );
#325 = ORIENTED_EDGE( '', *, *, #368, .F. );
#326 = ORIENTED_EDGE( '', *, *, #396, .F. );
#327 = ORIENTED_EDGE( '', *, *, #377, .F. );
#328 = ORIENTED_EDGE( '', *, *, #349, .F. );
#329 = ORIENTED_EDGE( '', *, *, #381, .T. );
#330 = ORIENTED_EDGE( '', *, *, #402, .F. );
#331 = ORIENTED_EDGE( '', *, *, #357, .F. );
#332 = ORIENTED_EDGE( '', *, *, #373, .F. );
#333 = ORIENTED_EDGE( '', *, *, #385, .F. );
#334 = ORIENTED_EDGE( '', *, *, #362, .F. );
#335 = ORIENTED_EDGE( '', *, *, #399, .F. );
#336 = ORIENTED_EDGE( '', *, *, #393, .F. );
#337 = CARTESIAN_POINT( '', ( 8.67361737988404E-16, 20.0000000000000, -7.00000000000000 ) );
#338 = DIRECTION( '', ( 0.000000000000000, 0.000000000000000, 1.00000000000000 ) );
#339 = DIRECTION( '', ( 1.00000000000000, 0.000000000000000, -0.000000000000000 ) );
#340 = SURFACE_STYLE_FILL_AREA( #403 );
#341 = ORIENTED_EDGE( '', *, *, #402, .T. );
#342 = ORIENTED_EDGE( '', *, *, #383, .F. );
#343 = ORIENTED_EDGE( '', *, *, #390, .F. );
#344 = ORIENTED_EDGE( '', *, *, #358, .T. );
#345 = CARTESIAN_POINT( '', ( 0.400000000000000, 32.8000000000000, 7.00000000000000 ) );
#346 = DIRECTION( '', ( 1.00000000000000, 0.000000000000000, -0.000000000000000 ) );
#347 = DIRECTION( '', ( -0.000000000000000, 0.000000000000000, -1.00000000000000 ) );
#348 = FILL_AREA_STYLE( '', ( #404 ) );
#349 = EDGE_CURVE( '', #405, #406, #407, .T. );
#350 = EDGE_CURVE( '', #408, #406, #409, .T. );
#351 = EDGE_CURVE( '', #410, #408, #411, .T. );
#352 = EDGE_CURVE( '', #410, #405, #412, .T. );
#353 = FILL_AREA_STYLE( '', ( #413 ) );
#354 = EDGE_CURVE( '', #414, #414, #415, .T. );
#355 = EDGE_CURVE( '', #416, #416, #417, .T. );
#356 = FILL_AREA_STYLE( '', ( #418 ) );
#357 = EDGE_CURVE( '', #419, #420, #421, .T. );
#358 = EDGE_CURVE( '', #422, #420, #423, .T. );
#359 = EDGE_CURVE( '', #424, #422, #425, .T. );
#360 = EDGE_CURVE( '', #424, #419, #426, .T. );
#361 = FILL_AREA_STYLE( '', ( #427 ) );
#362 = EDGE_CURVE( '', #428, #429, #430, .T. );
#363 = EDGE_CURVE( '', #431, #429, #432, .T. );
#364 = EDGE_CURVE( '', #433, #431, #434, .T. );
#365 = EDGE_CURVE( '', #433, #428, #435, .T. );
#366 = FILL_AREA_STYLE( '', ( #436 ) );
#367 = EDGE_CURVE( '', #437, #437, #438, .T. );
#368 = EDGE_CURVE( '', #439, #440, #441, .T. );
#369 = EDGE_CURVE( '', #442, #440, #443, .T. );
#370 = EDGE_CURVE( '', #444, #442, #445, .T. );
#371 = EDGE_CURVE( '', #444, #439, #446, .T. );
#372 = FILL_AREA_STYLE( '', ( #447 ) );
#373 = EDGE_CURVE( '', #448, #419, #449, .T. );
#374 = EDGE_CURVE( '', #450, #424, #451, .T. );
#375 = EDGE_CURVE( '', #450, #448, #452, .T. );
#376 = FILL_AREA_STYLE( '', ( #453 ) );
#377 = EDGE_CURVE( '', #406, #454, #455, .T. );
#378 = EDGE_CURVE( '', #456, #454, #457, .T. );
#379 = EDGE_CURVE( '', #408, #456, #458, .T. );
#380 = FILL_AREA_STYLE( '', ( #459 ) );
#381 = EDGE_CURVE( '', #405, #460, #461, .T. );
#382 = EDGE_CURVE( '', #410, #462, #463, .T. );
#383 = EDGE_CURVE( '', #462, #460, #464, .T. );
#384 = FILL_AREA_STYLE( '', ( #465 ) );
#385 = EDGE_CURVE( '', #429, #448, #466, .T. );
#386 = EDGE_CURVE( '', #431, #450, #467, .T. );
#387 = FILL_AREA_STYLE( '', ( #468 ) );
#388 = EDGE_CURVE( '', #442, #469, #470, .T. );
#389 = EDGE_CURVE( '', #469, #433, #471, .T. );
#390 = EDGE_CURVE( '', #422, #462, #472, .T. );
#391 = EDGE_CURVE( '', #456, #444, #473, .T. );
#392 = FILL_AREA_STYLE( '', ( #474 ) );
#393 = EDGE_CURVE( '', #440, #475, #476, .T. );
#394 = EDGE_CURVE( '', #469, #475, #477, .T. );
#395 = FILL_AREA_STYLE( '', ( #478 ) );
#396 = EDGE_CURVE( '', #454, #439, #479, .T. );
#397 = FILL_AREA_STYLE( '', ( #480 ) );
#398 = EDGE_CURVE( '', #481, #481, #482, .T. );
#399 = EDGE_CURVE( '', #475, #428, #483, .T. );
#400 = FILL_AREA_STYLE( '', ( #484 ) );
#401 = FILL_AREA_STYLE( '', ( #485 ) );
#402 = EDGE_CURVE( '', #420, #460, #486, .T. );
#403 = FILL_AREA_STYLE( '', ( #487 ) );
#404 = FILL_AREA_STYLE_COLOUR( '', #488 );
#405 = VERTEX_POINT( '', #489 );
#406 = VERTEX_POINT( '', #490 );
#407 = LINE( '', #491, #492 );
#408 = VERTEX_POINT( '', #493 );
#409 = LINE( '', #494, #495 );
#410 = VERTEX_POINT( '', #496 );
#411 = LINE( '', #497, #498 );
#412 = LINE( '', #499, #500 );
#413 = FILL_AREA_STYLE_COLOUR( '', #501 );
#414 = VERTEX_POINT( '', #502 );
#415 = CIRCLE( '', #503, 2.75000000000000 );
#416 = VERTEX_POINT( '', #504 );
#417 = CIRCLE( '', #505, 2.75000000000000 );
#418 = FILL_AREA_STYLE_COLOUR( '', #506 );
#419 = VERTEX_POINT( '', #507 );
#420 = VERTEX_POINT( '', #508 );
#421 = LINE( '', #509, #510 );
#422 = VERTEX_POINT( '', #511 );
#423 = LINE( '', #512, #513 );
#424 = VERTEX_POINT( '', #514 );
#425 = LINE( '', #515, #516 );
#426 = LINE( '', #517, #518 );
#427 = FILL_AREA_STYLE_COLOUR( '', #519 );
#428 = VERTEX_POINT( '', #520 );
#429 = VERTEX_POINT( '', #521 );
#430 = LINE( '', #522, #523 );
#431 = VERTEX_POINT( '', #524 );
#432 = LINE( '', #525, #526 );
#433 = VERTEX_POINT( '', #527 );
#434 = LINE( '', #528, #529 );
#435 = LINE( '', #530, #531 );
#436 = FILL_AREA_STYLE_COLOUR( '', #532 );
#437 = VERTEX_POINT( '', #533 );
#438 = CIRCLE( '', #534, 2.75000000000000 );
#439 = VERTEX_POINT( '', #535 );
#440 = VERTEX_POINT( '', #536 );
#441 = LINE( '', #537, #538 );
#442 = VERTEX_POINT( '', #539 );
#443 = LINE( '', #540, #541 );
#444 = VERTEX_POINT( '', #542 );
#445 = LINE( '', #543, #544 );
#446 = LINE( '', #545, #546 );
#447 = FILL_AREA_STYLE_COLOUR( '', #547 );
#448 = VERTEX_POINT( '', #548 );
#449 = LINE( '', #549, #550 );
#450 = VERTEX_POINT( '', #551 );
#451 = LINE( '', #552, #553 );
#452 = LINE( '', #554, #555 );
#453 = FILL_AREA_STYLE_COLOUR( '', #556 );
#454 = VERTEX_POINT( '', #557 );
#455 = LINE( '', #558, #559 );
#456 = VERTEX_POINT( '', #560 );
#457 = LINE( '', #561, #562 );
#458 = LINE( '', #563, #564 );
#459 = FILL_AREA_STYLE_COLOUR( '', #565 );
#460 = VERTEX_POINT( '', #566 );
#461 = CIRCLE( '', #567, 4.00000000000000 );
#462 = VERTEX_POINT( '', #568 );
#463 = CIRCLE( '', #569, 4.00000000000000 );
#464 = LINE( '', #570, #571 );
#465 = FILL_AREA_STYLE_COLOUR( '', #572 );
#466 = LINE( '', #573, #574 );
#467 = LINE( '', #575, #576 );
#468 = FILL_AREA_STYLE_COLOUR( '', #577 );
#469 = VERTEX_POINT( '', #578 );
#470 = LINE( '', #579, #580 );
#471 = LINE( '', #581, #582 );
#472 = LINE( '', #583, #584 );
#473 = LINE( '', #585, #586 );
#474 = FILL_AREA_STYLE_COLOUR( '', #587 );
#475 = VERTEX_POINT( '', #588 );
#476 = LINE( '', #589, #590 );
#477 = LINE( '', #591, #592 );
#478 = FILL_AREA_STYLE_COLOUR( '', #593 );
#479 = LINE( '', #594, #595 );
#480 = FILL_AREA_STYLE_COLOUR( '', #596 );
#481 = VERTEX_POINT( '', #597 );
#482 = CIRCLE( '', #598, 2.75000000000000 );
#483 = LINE( '', #599, #600 );
#484 = FILL_AREA_STYLE_COLOUR( '', #601 );
#485 = FILL_AREA_STYLE_COLOUR( '', #602 );
#486 = LINE( '', #603, #604 );
#487 = FILL_AREA_STYLE_COLOUR( '', #605 );
#488 = COLOUR_RGB( '', 0.689999997600000, 0.689999997600000, 0.689999997600000 );
#489 = CARTESIAN_POINT( '', ( -0.399999999999998, 23.9799497484265, -7.00000000000000 ) );
#490 = CARTESIAN_POINT( '', ( -0.399999999999999, 32.8000000000000, -7.00000000000000 ) );
#491 = CARTESIAN_POINT( '', ( -0.399999999999999, 23.9799497484265, -7.00000000000000 ) );
#492 = VECTOR( '', #606, 1000.00000000000 );
#493 = CARTESIAN_POINT( '', ( -0.399999999999999, 32.8000000000000, 7.00000000000000 ) );
#494 = CARTESIAN_POINT( '', ( -0.399999999999999, 32.8000000000000, 7.00000000000000 ) );
#495 = VECTOR( '', #607, 1000.00000000000 );
#496 = CARTESIAN_POINT( '', ( -0.399999999999998, 23.9799497484265, 7.00000000000000 ) );
#497 = CARTESIAN_POINT( '', ( -0.399999999999999, 23.9799497484265, 7.00000000000000 ) );
#498 = VECTOR( '', #608, 1000.00000000000 );
#499 = CARTESIAN_POINT( '', ( -0.399999999999998, 23.9799497484265, 7.00000000000000 ) );
#500 = VECTOR( '', #609, 1000.00000000000 );
#501 = COLOUR_RGB( '', 0.689999997600000, 0.689999997600000, 0.689999997600000 );
#502 = CARTESIAN_POINT( '', ( 16.0000000000000, 0.000000000000000, -2.75000000000000 ) );
#503 = AXIS2_PLACEMENT_3D( '', #610, #611, #612 );
#504 = CARTESIAN_POINT( '', ( 16.0000000000000, 6.00000000000000, -2.75000000000000 ) );
#505 = AXIS2_PLACEMENT_3D( '', #613, #614, #615 );
#506 = COLOUR_RGB( '', 0.689999997600000, 0.689999997600000, 0.689999997600000 );
#507 = CARTESIAN_POINT( '', ( 9.00000000000000, 32.8000000000000, -7.00000000000000 ) );
#508 = CARTESIAN_POINT( '', ( 0.400000000000003, 32.8000000000000, -7.00000000000000 ) );
#509 = CARTESIAN_POINT( '', ( 9.00000000000000, 32.8000000000000, -7.00000000000000 ) );
#510 = VECTOR( '', #616, 1000.00000000000 );
#511 = CARTESIAN_POINT( '', ( 0.400000000000003, 32.8000000000000, 7.00000000000000 ) );
#512 = CARTESIAN_POINT( '', ( 0.400000000000003, 32.8000000000000, 7.00000000000000 ) );
#513 = VECTOR( '', #617, 1000.00000000000 );
#514 = CARTESIAN_POINT( '', ( 9.00000000000000, 32.8000000000000, 7.00000000000000 ) );
#515 = CARTESIAN_POINT( '', ( 9.00000000000000, 32.8000000000000, 7.00000000000000 ) );
#516 = VECTOR( '', #618, 1000.00000000000 );
#517 = CARTESIAN_POINT( '', ( 9.00000000000000, 32.8000000000000, 7.00000000000000 ) );
#518 = VECTOR( '', #619, 1000.00000000000 );
#519 = COLOUR_RGB( '', 0.689999997600000, 0.689999997600000, 0.689999997600000 );
#520 = CARTESIAN_POINT( '', ( 21.0000000000000, 0.000000000000000, -7.00000000000000 ) );
#521 = CARTESIAN_POINT( '', ( 21.0000000000000, 6.00000000000000, -7.00000000000000 ) );
#522 = CARTESIAN_POINT( '', ( 21.0000000000000, 0.000000000000000, -7.00000000000000 ) );
#523 = VECTOR( '', #620, 1000.00000000000 );
#524 = CARTESIAN_POINT( '', ( 21.0000000000000, 6.00000000000000, 7.00000000000000 ) );
#525 = CARTESIAN_POINT( '', ( 21.0000000000000, 6.00000000000000, 7.00000000000000 ) );
#526 = VECTOR( '', #621, 1000.00000000000 );
#527 = CARTESIAN_POINT( '', ( 21.0000000000000, 0.000000000000000, 7.00000000000000 ) );
#528 = CARTESIAN_POINT( '', ( 21.0000000000000, 0.000000000000000, 7.00000000000000 ) );
#529 = VECTOR( '', #622, 1000.00000000000 );
#530 = CARTESIAN_POINT( '', ( 21.0000000000000, 0.000000000000000, 7.00000000000000 ) );
#531 = VECTOR( '', #623, 1000.00000000000 );
#532 = COLOUR_RGB( '', 0.689999997600000, 0.689999997600000, 0.689999997600000 );
#533 = CARTESIAN_POINT( '', ( -16.0000000000000, 6.00000000000000, -2.75000000000000 ) );
#534 = AXIS2_PLACEMENT_3D( '', #624, #625, #626 );
#535 = CARTESIAN_POINT( '', ( -9.00000000000000, 6.00000000000001, -7.00000000000000 ) );
#536 = CARTESIAN_POINT( '', ( -21.0000000000000, 6.00000000000000, -7.00000000000000 ) );
#537 = CARTESIAN_POINT( '', ( -9.00000000000000, 6.00000000000001, -7.00000000000000 ) );
#538 = VECTOR( '', #627, 1000.00000000000 );
#539 = CARTESIAN_POINT( '', ( -21.0000000000000, 6.00000000000000, 7.00000000000000 ) );
#540 = CARTESIAN_POINT( '', ( -21.0000000000000, 6.00000000000000, 7.00000000000000 ) );
#541 = VECTOR( '', #628, 1000.00000000000 );
#542 = CARTESIAN_POINT( '', ( -9.00000000000000, 6.00000000000001, 7.00000000000000 ) );
#543 = CARTESIAN_POINT( '', ( -9.00000000000000, 6.00000000000001, 7.00000000000000 ) );
#544 = VECTOR( '', #629, 1000.00000000000 );
#545 = CARTESIAN_POINT( '', ( -9.00000000000000, 6.00000000000001, 7.00000000000000 ) );
#546 = VECTOR( '', #630, 1000.00000000000 );
#547 = COLOUR_RGB( '', 0.689999997600000, 0.689999997600000, 0.689999997600000 );
#548 = CARTESIAN_POINT( '', ( 9.00000000000000, 6.00000000000001, -7.00000000000000 ) );
#549 = CARTESIAN_POINT( '', ( 9.00000000000000, 6.00000000000001, -7.00000000000000 ) );
#550 = VECTOR( '', #631, 1000.00000000000 );
#551 = CARTESIAN_POINT( '', ( 9.00000000000000, 6.00000000000001, 7.00000000000000 ) );
#552 = CARTESIAN_POINT( '', ( 9.00000000000000, 6.00000000000001, 7.00000000000000 ) );
#553 = VECTOR( '', #632, 1000.00000000000 );
#554 = CARTESIAN_POINT( '', ( 9.00000000000000, 6.00000000000001, 7.00000000000000 ) );
#555 = VECTOR( '', #633, 1000.00000000000 );
#556 = COLOUR_RGB( '', 0.689999997600000, 0.689999997600000, 0.689999997600000 );
#557 = CARTESIAN_POINT( '', ( -9.00000000000000, 32.8000000000000, -7.00000000000000 ) );
#558 = CARTESIAN_POINT( '', ( -0.399999999999999, 32.8000000000000, -7.00000000000000 ) );
#559 = VECTOR( '', #634, 1000.00000000000 );
#560 = CARTESIAN_POINT( '', ( -9.00000000000000, 32.8000000000000, 7.00000000000000 ) );
#561 = CARTESIAN_POINT( '', ( -9.00000000000000, 32.8000000000000, 7.00000000000000 ) );
#562 = VECTOR( '', #635, 1000.00000000000 );
#563 = CARTESIAN_POINT( '', ( -0.399999999999999, 32.8000000000000, 7.00000000000000 ) );
#564 = VECTOR( '', #636, 1000.00000000000 );
#565 = COLOUR_RGB( '', 0.689999997600000, 0.689999997600000, 0.689999997600000 );
#566 = CARTESIAN_POINT( '', ( 0.400000000000000, 23.9799497484265, -7.00000000000000 ) );
#567 = AXIS2_PLACEMENT_3D( '', #637, #638, #639 );
#568 = CARTESIAN_POINT( '', ( 0.400000000000000, 23.9799497484265, 7.00000000000000 ) );
#569 = AXIS2_PLACEMENT_3D( '', #640, #641, #642 );
#570 = CARTESIAN_POINT( '', ( 0.400000000000000, 23.9799497484265, 7.00000000000000 ) );
#571 = VECTOR( '', #643, 1000.00000000000 );
#572 = COLOUR_RGB( '', 0.689999997600000, 0.689999997600000, 0.689999997600000 );
#573 = CARTESIAN_POINT( '', ( 21.0000000000000, 6.00000000000000, -7.00000000000000 ) );
#574 = VECTOR( '', #644, 1000.00000000000 );
#575 = CARTESIAN_POINT( '', ( 21.0000000000000, 6.00000000000000, 7.00000000000000 ) );
#576 = VECTOR( '', #645, 1000.00000000000 );
#577 = COLOUR_RGB( '', 0.689999997600000, 0.689999997600000, 0.689999997600000 );
#578 = CARTESIAN_POINT( '', ( -21.0000000000000, 0.000000000000000, 7.00000000000000 ) );
#579 = CARTESIAN_POINT( '', ( -21.0000000000000, 6.00000000000000, 7.00000000000000 ) );
#580 = VECTOR( '', #646, 1000.00000000000 );
#581 = CARTESIAN_POINT( '', ( -21.0000000000000, 0.000000000000000, 7.00000000000000 ) );
#582 = VECTOR( '', #647, 1000.00000000000 );
#583 = CARTESIAN_POINT( '', ( 0.400000000000000, 32.8000000000000, 7.00000000000000 ) );
#584 = VECTOR( '', #648, 1000.00000000000 );
#585 = CARTESIAN_POINT( '', ( -9.00000000000000, 32.8000000000000, 7.00000000000000 ) );
#586 = VECTOR( '', #649, 1000.00000000000 );
#587 = COLOUR_RGB( '', 0.689999997600000, 0.689999997600000, 0.689999997600000 );
#588 = CARTESIAN_POINT( '', ( -21.0000000000000, 0.000000000000000, -7.00000000000000 ) );
#589 = CARTESIAN_POINT( '', ( -21.0000000000000, 6.00000000000000, -7.00000000000000 ) );
#590 = VECTOR( '', #650, 1000.00000000000 );
#591 = CARTESIAN_POINT( '', ( -21.0000000000000, 0.000000000000000, 7.00000000000000 ) );
#592 = VECTOR( '', #651, 1000.00000000000 );
#593 = COLOUR_RGB( '', 0.689999997600000, 0.689999997600000, 0.689999997600000 );
#594 = CARTESIAN_POINT( '', ( -9.00000000000000, 32.8000000000000, -7.00000000000000 ) );
#595 = VECTOR( '', #652, 1000.00000000000 );
#596 = COLOUR_RGB( '', 0.689999997600000, 0.689999997600000, 0.689999997600000 );
#597 = CARTESIAN_POINT( '', ( -16.0000000000000, 0.000000000000000, -2.75000000000000 ) );
#598 = AXIS2_PLACEMENT_3D( '', #653, #654, #655 );
#599 = CARTESIAN_POINT( '', ( -21.0000000000000, 0.000000000000000, -7.00000000000000 ) );
#600 = VECTOR( '', #656, 1000.00000000000 );
#601 = COLOUR_RGB( '', 0.689999997600000, 0.689999997600000, 0.689999997600000 );
#602 = COLOUR_RGB( '', 0.689999997600000, 0.689999997600000, 0.689999997600000 );
#603 = CARTESIAN_POINT( '', ( 0.400000000000000, 32.8000000000000, -7.00000000000000 ) );
#604 = VECTOR( '', #657, 1000.00000000000 );
#605 = COLOUR_RGB( '', 0.689999997600000, 0.689999997600000, 0.689999997600000 );
#606 = DIRECTION( '', ( 6.14623580116270E-18, 1.00000000000000, 0.000000000000000 ) );
#607 = DIRECTION( '', ( -0.000000000000000, -0.000000000000000, -1.00000000000000 ) );
#608 = DIRECTION( '', ( 6.14623580116270E-18, 1.00000000000000, 0.000000000000000 ) );
#609 = DIRECTION( '', ( -0.000000000000000, -0.000000000000000, -1.00000000000000 ) );
#610 = CARTESIAN_POINT( '', ( 16.0000000000000, 0.000000000000000, 0.000000000000000 ) );
#611 = DIRECTION( '', ( 0.000000000000000, -1.00000000000000, -0.000000000000000 ) );
#612 = DIRECTION( '', ( 0.000000000000000, 0.000000000000000, -1.00000000000000 ) );
#613 = CARTESIAN_POINT( '', ( 16.0000000000000, 6.00000000000000, 0.000000000000000 ) );
#614 = DIRECTION( '', ( 0.000000000000000, -1.00000000000000, -0.000000000000000 ) );
#615 = DIRECTION( '', ( 0.000000000000000, 0.000000000000000, -1.00000000000000 ) );
#616 = DIRECTION( '', ( -1.00000000000000, 0.000000000000000, 0.000000000000000 ) );
#617 = DIRECTION( '', ( -0.000000000000000, -0.000000000000000, -1.00000000000000 ) );
#618 = DIRECTION( '', ( -1.00000000000000, 0.000000000000000, 0.000000000000000 ) );
#619 = DIRECTION( '', ( -0.000000000000000, -0.000000000000000, -1.00000000000000 ) );
#620 = DIRECTION( '', ( 0.000000000000000, 1.00000000000000, 0.000000000000000 ) );
#621 = DIRECTION( '', ( -0.000000000000000, -0.000000000000000, -1.00000000000000 ) );
#622 = DIRECTION( '', ( 0.000000000000000, 1.00000000000000, 0.000000000000000 ) );
#623 = DIRECTION( '', ( -0.000000000000000, -0.000000000000000, -1.00000000000000 ) );
#624 = CARTESIAN_POINT( '', ( -16.0000000000000, 6.00000000000000, 0.000000000000000 ) );
#625 = DIRECTION( '', ( 0.000000000000000, -1.00000000000000, -0.000000000000000 ) );
#626 = DIRECTION( '', ( 0.000000000000000, 0.000000000000000, -1.00000000000000 ) );
#627 = DIRECTION( '', ( -1.00000000000000, -2.89120579329468E-16, 0.000000000000000 ) );
#628 = DIRECTION( '', ( -0.000000000000000, -0.000000000000000, -1.00000000000000 ) );
#629 = DIRECTION( '', ( -1.00000000000000, -2.89120579329468E-16, 0.000000000000000 ) );
#630 = DIRECTION( '', ( -0.000000000000000, -0.000000000000000, -1.00000000000000 ) );
#631 = DIRECTION( '', ( 0.000000000000000, 1.00000000000000, 0.000000000000000 ) );
#632 = DIRECTION( '', ( 0.000000000000000, 1.00000000000000, 0.000000000000000 ) );
#633 = DIRECTION( '', ( -0.000000000000000, -0.000000000000000, -1.00000000000000 ) );
#634 = DIRECTION( '', ( -1.00000000000000, 0.000000000000000, 0.000000000000000 ) );
#635 = DIRECTION( '', ( -0.000000000000000, -0.000000000000000, -1.00000000000000 ) );
#636 = DIRECTION( '', ( -1.00000000000000, 0.000000000000000, 0.000000000000000 ) );
#637 = CARTESIAN_POINT( '', ( 8.67361737988404E-16, 20.0000000000000, -7.00000000000000 ) );
#638 = DIRECTION( '', ( 0.000000000000000, 0.000000000000000, 1.00000000000000 ) );
#639 = DIRECTION( '', ( 1.00000000000000, 0.000000000000000, 0.000000000000000 ) );
#640 = CARTESIAN_POINT( '', ( 8.67361737988404E-16, 20.0000000000000, 7.00000000000000 ) );
#641 = DIRECTION( '', ( 0.000000000000000, 0.000000000000000, 1.00000000000000 ) );
#642 = DIRECTION( '', ( 1.00000000000000, 0.000000000000000, 0.000000000000000 ) );
#643 = DIRECTION( '', ( -0.000000000000000, -0.000000000000000, -1.00000000000000 ) );
#644 = DIRECTION( '', ( -1.00000000000000, 7.95081593156037E-16, 0.000000000000000 ) );
#645 = DIRECTION( '', ( -1.00000000000000, 7.95081593156037E-16, 0.000000000000000 ) );
#646 = DIRECTION( '', ( 0.000000000000000, -1.00000000000000, 0.000000000000000 ) );
#647 = DIRECTION( '', ( 1.00000000000000, 0.000000000000000, 0.000000000000000 ) );
#648 = DIRECTION( '', ( 0.000000000000000, -1.00000000000000, 0.000000000000000 ) );
#649 = DIRECTION( '', ( 0.000000000000000, -1.00000000000000, 0.000000000000000 ) );
#650 = DIRECTION( '', ( 0.000000000000000, -1.00000000000000, 0.000000000000000 ) );
#651 = DIRECTION( '', ( -0.000000000000000, -0.000000000000000, -1.00000000000000 ) );
#652 = DIRECTION( '', ( 0.000000000000000, -1.00000000000000, 0.000000000000000 ) );
#653 = CARTESIAN_POINT( '', ( -16.0000000000000, 0.000000000000000, 0.000000000000000 ) );
#654 = DIRECTION( '', ( 0.000000000000000, -1.00000000000000, -0.000000000000000 ) );
#655 = DIRECTION( '', ( 0.000000000000000, 0.000000000000000, -1.00000000000000 ) );
#656 = DIRECTION( '', ( 1.00000000000000, 0.000000000000000, 0.000000000000000 ) );
#657 = DIRECTION( '', ( 0.000000000000000, -1.00000000000000, 0.000000000000000 ) );
ENDSEC;
END-ISO-10303-21;
